<svg width="59" height="59" viewBox="0 0 59 59" fill="none" xmlns="http://www.w3.org/2000/svg">
<path d="M12.8743 55.9825L12.945 56.0532L12.8743 55.9825C12.49 56.3669 12.49 56.9914 12.8743 57.3758C13.0569 57.5583 13.2959 57.654 13.5343 57.6633L13.5354 57.6643H13.5729C13.8242 57.6643 14.0757 57.5681 14.2678 57.376L14.1971 57.3053L14.2678 57.376L24.9098 46.7314C25.2942 46.347 25.2942 45.7226 24.9098 45.3382L13.6405 34.0689L13.6405 34.0689C13.2694 33.6979 12.6184 33.6979 12.2473 34.0689L12.2473 34.0689L1.60528 44.7135C1.22093 45.0979 1.22086 45.7223 1.60529 46.1067C1.98969 46.4911 2.61413 46.4911 2.9985 46.1067L12.945 36.1602L22.8209 46.036L12.8743 55.9825Z" fill="#FF6633" stroke="#FF6633" stroke-width="0.2"/>
<path d="M12.6287 56.2243L12.6924 56.288L12.6287 56.2243C12.2444 56.6087 12.2444 57.2332 12.6287 57.6175C12.8127 57.8015 13.0538 57.8972 13.294 57.9053L13.295 57.906H13.3273C13.5785 57.906 13.8296 57.81 14.0215 57.6218L14.0222 57.6211L19.9025 51.7408C20.0874 51.5559 20.1908 51.3046 20.1908 51.0425C20.1908 50.7805 20.0874 50.5292 19.9025 50.3443L8.63319 39.075L8.63319 39.075C8.24878 38.6906 7.62434 38.6906 7.23998 39.075L1.35968 44.9553L1.35967 44.9553C0.975321 45.3397 0.97526 45.9641 1.35968 46.3485C1.74408 46.7329 2.36853 46.7329 2.75289 46.3485L7.93493 41.1665L17.8108 51.0423L12.6287 56.2243Z" fill="#FF6633" stroke="#FF6633" stroke-width="0.2"/>
<path d="M14.1255 34.6964L14.1255 34.6964L14.1255 36.0897C14.3179 36.282 14.5729 36.3779 14.8238 36.3779H14.8238C15.076 36.3779 15.3269 36.2779 15.5181 36.0903L15.5181 36.0903L15.5187 36.0897L17.398 34.2104L17.398 34.2104C17.7824 33.826 17.7824 33.2015 17.398 32.8172C17.0136 32.4328 16.3892 32.4328 16.0048 32.8172L14.1255 34.6964Z" fill="#FF6633" stroke="#FF6633" stroke-width="0.2"/>
<path d="M18.5084 46.7315L18.5086 46.7317C18.7362 46.9592 18.9982 47.0489 19.2496 47.034C19.4986 47.0191 19.7295 46.9023 19.901 46.7308C20.0725 46.5593 20.1893 46.3284 20.2041 46.0795C20.2191 45.8281 20.1294 45.5661 19.9019 45.3385C19.6744 45.1102 19.4124 45.0198 19.1609 45.0343C18.9119 45.0487 18.681 45.1653 18.5094 45.3368C18.3379 45.5084 18.2211 45.7395 18.2063 45.9888C18.1913 46.2406 18.281 46.5031 18.5084 46.7315Z" fill="#FF6633" stroke="#FF6633" stroke-width="0.2"/>
<path d="M22.9952 45.7673L22.9939 45.7681H22.9625C22.7116 45.7681 22.4566 45.6723 22.2643 45.4799C22.2643 45.4799 22.2643 45.4799 22.2643 45.4799L13.4991 36.7172L13.4991 36.7172C13.1147 36.3329 13.1147 35.7084 13.4991 35.324L13.4991 35.324L16.0059 32.8172C16.3903 32.4328 17.0147 32.4328 17.3991 32.8172C17.7835 33.2015 17.7835 33.826 17.3991 34.2104L17.3991 34.2104L15.5906 36.0189L22.9629 43.3881L24.7715 41.5795C24.9564 41.3946 25.2077 41.2912 25.4698 41.2912C25.7318 41.2912 25.9831 41.3946 26.168 41.5795L26.1684 41.5798C26.4611 41.8755 26.9818 41.876 27.2784 41.5795C27.2784 41.5795 27.2784 41.5795 27.2784 41.5795L28.5302 40.3277C28.9145 39.9433 29.539 39.9433 29.9234 40.3277C30.3078 40.7121 30.3078 41.3365 29.9234 41.7209L29.8598 41.6573L29.9234 41.7209L28.6716 42.9727C27.8714 43.7729 26.5986 43.984 25.5976 43.5431L23.6613 45.4762L22.9952 45.7673ZM22.9952 45.7673C23.2359 45.7594 23.4743 45.6631 23.6612 45.4763L22.9952 45.7673Z" fill="#FF6633" stroke="#FF6633" stroke-width="0.2"/>
<path d="M15.4177 34.794C15.5845 34.9608 15.7984 35.0551 16.0159 35.0772V35.0823H16.1159C16.3662 35.0823 16.6216 34.9868 16.8079 34.7969C16.808 34.7968 16.8081 34.7967 16.8082 34.7966L18.019 33.5859C18.0191 33.5858 18.0192 33.5857 18.0193 33.5856C18.2855 33.3228 18.3776 32.9311 18.2595 32.5766L17.1999 29.3979L22.2097 24.3881L22.2097 24.3881C22.5941 24.0037 22.5941 23.3793 22.2097 22.9949C21.8253 22.6106 21.2009 22.6105 20.8165 22.9949L15.3784 28.4331C15.3783 28.4332 15.3782 28.4332 15.3781 28.4333C15.1118 28.6961 15.0197 29.0879 15.1379 29.4423L16.1974 32.621L15.4177 33.4007L15.4177 33.4007C15.0333 33.7852 15.0333 34.4096 15.4177 34.794Z" fill="#FF6633" stroke="#FF6633" stroke-width="0.2"/>
<path d="M38.4417 14.0772V14.0758V2.56428C38.4417 2.01737 37.9982 1.57773 37.4551 1.57773C36.9082 1.57773 36.4686 2.02121 36.4686 2.56428V13.0893H22.5008V2.56428C22.5008 2.01737 22.0573 1.57773 21.5142 1.57773C20.9673 1.57773 20.5277 2.02121 20.5277 2.56428V14.0758C20.5277 14.6227 20.9712 15.0624 21.5142 15.0624H37.4517H37.4518C37.9957 15.0624 38.4343 14.6223 38.4417 14.0772Z" fill="#FF6633" stroke="#FF6633" stroke-width="0.2"/>
<path d="M36.4653 2.04483L36.4685 6.00877H22.5008V2.04475C22.5008 1.49784 22.0573 1.0582 21.5142 1.0582C20.9673 1.0582 20.5277 1.50168 20.5277 2.04475V6.99201C20.5277 7.53892 20.9712 7.97856 21.5142 7.97856H37.4517H37.4518C37.9953 7.97856 38.4347 7.53865 38.4384 6.996V6.99532V2.04475C38.4384 1.49784 37.9949 1.0582 37.4518 1.0582C36.9049 1.0582 36.4653 1.50168 36.4653 2.04475L36.4653 2.04483Z" fill="#FF6633" stroke="#FF6633" stroke-width="0.2"/>
<path d="M34.6928 17.617C34.6928 18.1639 35.1363 18.6036 35.6794 18.6036C36.2261 18.6036 36.6659 18.1636 36.6659 17.617V14.9608C36.6659 14.4139 36.2225 13.9742 35.6794 13.9742C35.1325 13.9742 34.6928 14.4177 34.6928 14.9608V17.617Z" fill="#FF6633" stroke="#FF6633" stroke-width="0.2"/>
<path d="M24.0704 10.5349C24.0704 10.8575 24.1921 11.1068 24.3804 11.2745C24.5669 11.4406 24.8127 11.5215 25.0553 11.5215C25.2978 11.5215 25.5436 11.4406 25.7301 11.2745C25.9184 11.1068 26.0401 10.8575 26.0401 10.5349C26.0401 10.2124 25.9184 9.96306 25.7301 9.79539C25.5436 9.62934 25.2978 9.54844 25.0553 9.54844C24.8127 9.54844 24.5669 9.62934 24.3804 9.79539C24.1921 9.96306 24.0704 10.2124 24.0704 10.5349Z" fill="#FF6633" stroke="#FF6633" stroke-width="0.2"/>
<path d="M24.2671 15.0645V17.6208C24.2671 18.1638 23.8274 18.6073 23.2805 18.6073C22.8477 18.6073 22.494 18.961 22.494 19.3939V29.132V29.1323H22.394L24.2671 15.0645ZM24.2671 15.0645H34.6921V17.6208C34.6921 18.1677 35.1356 18.6073 35.6786 18.6073C36.2255 18.6073 36.6652 18.1638 36.6652 17.6208V14.078C36.6652 13.531 36.2217 13.0914 35.6786 13.0914H23.2839C22.737 13.0914 22.2974 13.5349 22.2974 14.078V16.8173C21.2644 17.2143 20.5277 18.2162 20.5277 19.3905V29.1289C20.5277 29.6758 20.9711 30.1154 21.514 30.1155L24.2671 15.0645Z" fill="#FF6633" stroke="#FF6633" stroke-width="0.2"/>
<path d="M35.2396 19.3877L35.2397 19.3877L38.2357 20.8841V25.1453C38.2357 25.6582 38.6258 26.0768 39.1222 26.1269V26.132H39.2222C39.7656 26.132 40.2088 25.6887 40.2088 25.1454V20.2745C40.2088 19.9048 39.9983 19.5612 39.6654 19.3948L39.6654 19.3948L36.6694 17.8984V16.7948C36.6694 16.2478 36.2259 15.8082 35.6828 15.8082C35.1359 15.8082 34.6963 16.2517 34.6963 16.7948V18.508C34.6963 18.8777 34.9068 19.2213 35.2396 19.3877Z" fill="#FF6633" stroke="#FF6633" stroke-width="0.2"/>
<path d="M45.3941 57.6643H45.4314L45.4326 57.6633C45.671 57.654 45.907 57.5581 46.0893 57.3758L46.0257 57.3121L46.0894 57.3758C46.4737 56.9913 46.4737 56.3669 46.0893 55.9825L36.1428 46.036L46.0186 36.1602L55.9652 46.1067L56.0359 46.036L55.9652 46.1067C56.3496 46.4911 56.974 46.4911 57.3584 46.1067C57.7428 45.7223 57.7428 45.0979 57.3584 44.7135L46.7164 34.0689L46.7164 34.0689C46.3452 33.6979 45.6943 33.6979 45.3232 34.0689L34.0539 45.3382L34.0539 45.3382C33.6695 45.7226 33.6695 46.3471 34.0539 46.7315L44.6959 57.376L44.7643 57.3076L44.6959 57.376C44.8882 57.5684 45.1432 57.6643 45.3941 57.6643Z" fill="#FF6633" stroke="#FF6633" stroke-width="0.2"/>
<path d="M45.6729 57.9439H45.6904L45.6913 57.9436C45.9368 57.9391 46.181 57.8427 46.3715 57.6522L46.3082 57.5889L46.3715 57.6521C46.7559 57.2677 46.7559 56.6433 46.3715 56.2589L41.1529 51.0403L51.0254 41.1611L56.2439 46.3797L56.3147 46.309L56.244 46.3797C56.6283 46.7641 57.2528 46.7641 57.6372 46.3797C58.0215 45.9953 58.0215 45.3709 57.6372 44.9865L51.7237 39.073L51.7237 39.073C51.3393 38.6887 50.7149 38.6887 50.3305 39.073L39.0612 50.3423C38.8763 50.5273 38.7729 50.7786 38.7729 51.0406C38.7729 51.3026 38.8763 51.5539 39.0612 51.7388L44.9746 57.6556L44.9746 57.6556C45.167 57.848 45.422 57.9439 45.6729 57.9439Z" fill="#FF6633" stroke="#FF6633" stroke-width="0.2"/>
<path d="M42.9586 32.8172L42.9586 32.8172C42.5742 32.4328 41.9497 32.4328 41.5653 32.8172C41.181 33.2016 41.181 33.826 41.5654 34.2104L43.4446 36.0897C43.4446 36.0897 43.4446 36.0897 43.4446 36.0897C43.637 36.282 43.892 36.378 44.1429 36.378H44.1429C44.3951 36.378 44.6459 36.2779 44.8372 36.0904L44.8378 36.0897C45.2222 35.7053 45.2222 35.0808 44.8378 34.6965L42.9586 32.8172Z" fill="#FF6633" stroke="#FF6633" stroke-width="0.2"/>
<path d="M39.0617 46.7317L39.0617 46.7317C39.2893 46.9592 39.5513 47.0489 39.8028 47.034C40.0517 47.0191 40.2826 46.9023 40.4541 46.7308C40.6256 46.5593 40.7424 46.3284 40.7572 46.0795C40.7722 45.8281 40.6825 45.5661 40.455 45.3385C40.2275 45.1102 39.9653 45.0198 39.7136 45.0343C39.4643 45.0487 39.2331 45.1653 39.0614 45.3368C38.8896 45.5083 38.7726 45.7394 38.758 45.9889C38.7432 46.2408 38.8334 46.5033 39.0617 46.7317Z" fill="#FF6633" stroke="#FF6633" stroke-width="0.2"/>
<path d="M37.1819 29.827C37.3308 29.9759 37.5172 30.067 37.7103 30.1006L37.7012 30.1153H37.8801C38.1342 30.1153 38.3861 30.0195 38.5754 29.8267C38.9594 29.4423 38.9593 28.8181 38.5751 28.4338L31.6887 21.5475L31.6886 21.5474C30.6136 20.4759 28.8671 20.4759 27.7921 21.5474L27.792 21.5475C26.7169 22.6225 26.7169 24.3692 27.792 25.4442L30.2955 27.9477L30.2955 27.9477C30.6799 28.3321 31.3043 28.3321 31.6887 27.9477C32.0731 27.5633 32.0731 26.9389 31.6887 26.5545L29.1852 24.051C29.1852 24.051 29.1852 24.051 29.1852 24.051C28.8789 23.7447 28.8789 23.2469 29.1852 22.9406C29.4915 22.6343 29.9893 22.6344 30.2956 22.9406L37.1819 29.827Z" fill="#FF6633" stroke="#FF6633" stroke-width="0.2"/>
<path d="M28.332 30.7281C28.1339 30.6966 27.942 30.6048 27.7894 30.4522L25.2826 27.9487L25.2825 27.9486C24.211 26.8736 24.211 25.1271 25.2825 24.0521L25.2828 24.0517C26.3607 22.9808 28.1072 22.9732 29.1826 24.0519L28.332 30.7281ZM28.332 30.7281L28.3258 30.7405H28.4876C28.7413 30.7405 28.9936 30.6449 29.1799 30.4516C29.5636 30.0671 29.5634 29.4432 29.1792 29.059L26.6761 26.5559C26.676 26.5558 26.6759 26.5558 26.6759 26.5557C26.3727 26.2494 26.3727 25.7513 26.6759 25.445C26.982 25.1391 27.4798 25.1387 27.7896 25.4453C27.7896 25.4454 27.7897 25.4454 27.7897 25.4455L30.2929 27.9487L30.2929 27.9487C30.6773 28.333 31.3017 28.3331 31.6861 27.9487C32.0705 27.5643 32.0705 26.9398 31.6861 26.5555L29.1827 24.0521L28.332 30.7281Z" fill="#FF6633" stroke="#FF6633" stroke-width="0.2"/>
<path d="M25.2852 32.9585C25.4354 33.1087 25.6236 33.2 25.8183 33.2329L25.8103 33.2469H25.9834C26.2385 33.2469 26.4899 33.1471 26.6783 32.9586L26.6784 32.9586C27.0627 32.5742 27.0627 31.9498 26.6783 31.5654L24.1748 29.0619C23.8686 28.7556 23.8686 28.2578 24.1748 27.9515C24.471 27.6555 24.992 27.6583 25.2852 27.9515L25.2853 27.9516L27.792 30.455C27.7921 30.455 27.7921 30.4551 27.7921 30.4551C28.1765 30.8394 28.8009 30.8394 29.1853 30.455C29.5696 30.0706 29.5696 29.4462 29.1853 29.0618L26.6817 26.5583C25.6399 25.5165 23.8235 25.5165 22.7817 26.5583C21.7067 27.6333 21.7067 29.38 22.7817 30.455L25.2852 32.9585Z" fill="#FF6633" stroke="#FF6633" stroke-width="0.2"/>
<path d="M43.3731 36.0234L36.0007 43.3925L34.1922 41.5839L34.1918 41.5836C33.8176 41.2132 33.1669 41.2127 32.7956 41.5839L32.7953 41.5843C32.5025 41.8799 31.9817 41.8804 31.6853 41.5839L21.668 31.5667C21.668 31.5667 21.668 31.5667 21.668 31.5667C21.3617 31.2604 21.3617 30.7626 21.668 30.4563C21.9743 30.15 22.4721 30.1501 22.7784 30.4563L25.2819 32.9598L25.2819 32.9598C25.6663 33.3442 26.2907 33.3442 26.6751 32.9598C27.0595 32.5754 27.0595 31.951 26.6751 31.5666L24.1716 29.0631L24.1715 29.063C23.0965 27.9915 21.35 27.9915 20.275 29.063L20.2749 29.0631C19.1998 30.1381 19.1998 31.8848 20.2749 32.9598L30.2921 42.9771C31.0923 43.7772 32.3652 43.9884 33.3661 43.5474L35.3024 45.4805C35.3025 45.4806 35.3025 45.4806 35.3025 45.4806C35.4845 45.6626 35.7225 45.7582 35.9601 45.768L35.9614 45.7693H36.0012C36.2555 45.7693 36.5067 45.6733 36.6987 45.485L36.6994 45.4843L45.4646 36.7217L45.4646 36.7217C45.849 36.3373 45.849 35.7128 45.4646 35.3284L42.9578 32.8216L42.8871 32.8923L42.9578 32.8216C42.5734 32.4373 41.9489 32.4372 41.5646 32.8216C41.1802 33.206 41.1802 33.8305 41.5646 34.2148L43.3731 36.0234Z" fill="#FF6633" stroke="#FF6633" stroke-width="0.2"/>
<path d="M42.1492 34.7939L42.1491 34.7938L40.9406 33.582C40.6785 33.3199 40.5822 32.9285 40.7006 32.5732L41.7602 29.3945L36.6293 24.2637C36.1545 25.0613 36.2591 26.1141 36.9449 26.7999L39.1131 28.9681C39.4974 29.3525 39.4974 29.9769 39.1131 30.3613C38.7287 30.7458 38.1043 30.7457 37.7199 30.3613L37.7906 30.2906L37.7199 30.3613L35.5517 28.1932C33.9721 26.6135 33.9719 24.0434 35.5517 22.4669L35.5517 22.467L35.6223 22.5377L35.5518 22.4669L42.1492 34.7939ZM42.1492 34.7939C42.3176 34.9623 42.5339 35.0567 42.7534 35.0777L42.7537 35.0823M42.1492 34.7939L42.7537 35.0823M42.7537 35.0823H42.8475M42.7537 35.0823H42.8475M42.8475 35.0823C43.1016 35.0823 43.3535 34.9865 43.5428 34.7937L42.8475 35.0823ZM42.7627 32.6211L42.719 32.5774L42.6483 32.6481L42.7431 32.6797L42.7627 32.6211Z" fill="#FF6633" stroke="#FF6633" stroke-width="0.2"/>
</svg>
