<?xml version="1.0" encoding="utf-8"?>
<!-- Generator: Adobe Illustrator 15.1.0, SVG Export Plug-In . SVG Version: 6.00 Build 0)  -->
<!DOCTYPE svg PUBLIC "-//W3C//DTD SVG 1.1//EN" "http://www.w3.org/Graphics/SVG/1.1/DTD/svg11.dtd">
<svg version="1.1" id="Layer_1" xmlns="http://www.w3.org/2000/svg" xmlns:xlink="http://www.w3.org/1999/xlink" x="0px" y="0px"
	 width="40px" height="39.836px" viewBox="30 5.082 40 39.836" enable-background="new 30 5.082 40 39.836" xml:space="preserve">
<path fill="#FF9933" d="M50,5.082c-10.998,0-20,1.831-20,4.169v10.833v1.831v9.832v7.666v0.836l0,0
	c0.336,3.668,13.164,4.669,20,4.669s19.5-1.001,20-4.669l0,0v-7.501v-1.001v-9.66v-2.003V9.251C70,6.913,60.997,5.082,50,5.082z
	 M50,6.748c10.003,0,16.167,1.502,17.998,2.503c-1.831,1.001-8.002,2.502-17.998,2.502c-9.997,0-16.168-1.501-17.998-2.502
	C33.832,8.25,40.003,6.748,50,6.748z M68.334,40.248c0,1.002-6.164,3.168-18.334,3.168s-18.334-2.331-18.334-3.168v-0.664v-7.165
	c3.668,2.166,12.835,2.667,18.334,2.667s14.666-0.665,18.334-2.667v0.665V40.248z M68.334,30.252c0,1.001-6.164,3.168-18.334,3.168
	s-18.334-2.332-18.334-3.168v-8.166v-1.33c3.668,2.166,12.835,2.667,18.334,2.667s14.666-0.666,18.334-2.667v1.494V30.252z
	 M50,21.586c-12.17,0-18.334-2.167-18.334-3.168v-7.5C34.669,12.419,41.834,13.42,50,13.42s15.331-1.001,18.334-2.502v7.665
	C68.334,19.419,62.17,21.586,50,21.586z"/>
<path fill="#FF9933" d="M35.667,28.744c0.98,0,1.777-0.797,1.777-1.778s-0.797-1.778-1.777-1.778c-0.979,0-1.777,0.798-1.777,1.778
	S34.688,28.744,35.667,28.744z M35.667,26.188c0.429,0,0.777,0.351,0.777,0.778c0,0.429-0.35,0.778-0.777,0.778
	c-0.427,0-0.777-0.35-0.777-0.778C34.89,26.538,35.239,26.188,35.667,26.188z"/>
<path fill="#FF9933" d="M39.667,29.744c0.979,0,1.776-0.797,1.776-1.778s-0.797-1.778-1.776-1.778s-1.777,0.799-1.777,1.778
	S38.688,29.744,39.667,29.744z M39.667,27.188c0.429,0,0.776,0.351,0.776,0.778c0,0.429-0.35,0.778-0.776,0.778
	s-0.777-0.35-0.777-0.778C38.89,27.538,39.238,27.188,39.667,27.188z"/>
<path fill="#FF9933" d="M35.569,39.7c0.98,0,1.777-0.798,1.777-1.778s-0.797-1.777-1.777-1.777c-0.979,0-1.777,0.799-1.777,1.777
	S34.59,39.7,35.569,39.7z M35.569,37.145c0.429,0,0.777,0.35,0.777,0.777s-0.35,0.778-0.777,0.778c-0.427,0-0.777-0.351-0.777-0.778
	S35.141,37.145,35.569,37.145z"/>
<path fill="#FF9933" d="M39.569,40.7c0.979,0,1.776-0.798,1.776-1.778s-0.797-1.777-1.776-1.777s-1.777,0.799-1.777,1.777
	S38.59,40.7,39.569,40.7z M39.569,38.145c0.429,0,0.776,0.35,0.776,0.777s-0.35,0.778-0.776,0.778c-0.426,0-0.777-0.351-0.777-0.778
	S39.141,38.145,39.569,38.145z"/>
<path fill="#FF9933" d="M35.632,18.094c0.98,0,1.777-0.797,1.777-1.778s-0.797-1.778-1.777-1.778c-0.979,0-1.777,0.798-1.777,1.778
	S34.653,18.094,35.632,18.094z M35.632,15.537c0.429,0,0.777,0.35,0.777,0.778c0,0.428-0.35,0.778-0.777,0.778
	c-0.427,0-0.777-0.35-0.777-0.778C34.855,15.887,35.204,15.537,35.632,15.537z"/>
<path fill="#FF9933" d="M39.632,19.094c0.979,0,1.776-0.797,1.776-1.778s-0.797-1.778-1.776-1.778s-1.777,0.799-1.777,1.778
	S38.652,19.094,39.632,19.094z M39.632,16.537c0.429,0,0.776,0.35,0.776,0.778c0,0.428-0.35,0.778-0.776,0.778
	c-0.426,0-0.777-0.35-0.777-0.778C38.855,16.887,39.203,16.537,39.632,16.537z"/>
</svg>
