<?xml version="1.0" encoding="UTF-8"?>
<svg width="152px" height="177px" viewBox="0 0 152 177" version="1.1" xmlns="http://www.w3.org/2000/svg" xmlns:xlink="http://www.w3.org/1999/xlink">
    <!-- Generator: Sketch 48.2 (47327) - http://www.bohemiancoding.com/sketch -->
    <title>ERT-i_Leaders</title>
    <desc>Created with Sketch.</desc>
    <defs></defs>
    <g id="People-Development-(Updated)" stroke="none" stroke-width="1" fill="none" fill-rule="evenodd" transform="translate(-765.000000, -1019.000000)">
        <g id="Container-1" transform="translate(-23.000000, 791.000000)">
            <g id="Knowledge-Center" transform="translate(149.000000, 231.000000)">
                <g id="ERT-i_Leaders" transform="translate(641.000000, 0.000000)">
                    <g id="knowledge_center-copy" stroke-width="1" fill-rule="evenodd" stroke="#FF6633">
                        <g id="Prism-icon-Frame" stroke-width="2">
                            <path d="M74,-1.1548768 L149,42.1728259 L149,128.827174 L74,172.154877 L-1,128.827174 L-1,42.1728259 L74,-1.1548768 Z" id="Polygon"></path>
                        </g>
                    </g>
                    <path d="M59.8083564,85.75 L62.6958564,124.25 L84.3212593,124.25 L88.1712593,85.75 L59.8083564,85.75 Z" id="Rectangle-4" stroke="#FF6633" stroke-width="1.5"></path>
                    <rect id="Rectangle" fill="#FF6633" fill-rule="evenodd" x="57" y="82" width="34" height="2"></rect>
                    <path d="M62,82 C62,82 62,74 74,74 C82,74 86,76.6666667 86,82" id="Path-3" stroke="#FF6633" stroke-width="1.5"></path>
                    <circle id="Oval-2" stroke="#FF6633" stroke-width="1.5" cx="74" cy="57" r="4"></circle>
                    <circle id="Oval" stroke="#FF6633" stroke-width="1.5" fill="#FFFFFF" fill-rule="evenodd" cx="74" cy="66" r="8"></circle>
                    <path d="" id="Path-4" stroke="#979797" stroke-width="1"></path>
                    <path d="" id="Path-5" stroke="#979797" stroke-width="1"></path>
                    <path d="M66.5,64 L81.508331,64" id="Path-6" stroke="#FF6633" stroke-width="1.5"></path>
                </g>
            </g>
        </g>
    </g>
</svg>