<svg width="35" height="35" viewBox="0 0 35 35" fill="none" xmlns="http://www.w3.org/2000/svg">
<path d="M28.99 5.00176H28.9698L28.9698 5.00179H10.3756C10.0623 5.00179 9.80742 5.25515 9.80742 5.56997V29.4316C9.80742 29.7449 10.0622 29.9997 10.3756 29.9997H28.9914C29.3049 29.9997 29.5582 29.7448 29.5582 29.4316V5.56857C29.5582 5.25504 29.3032 5.00176 28.99 5.00176ZM28.4232 28.8634H10.9427V6.13674H28.4221L28.4232 28.8634Z" fill="#FF6633" stroke="#FF6633" stroke-width="0.1"/>
<path d="M8.48049 15.7889L8.51153 15.7903V15.8066C8.51291 15.8158 8.5129 15.8236 8.5129 15.8291V15.83V15.83L8.51016 26.8907V28.1457C8.51016 29.0456 7.77822 29.7775 6.87833 29.7775H6.67736C5.78293 29.7775 5.05509 29.0497 5.05509 28.1553V27.4574H4.03048C3.71856 27.4574 3.46367 27.2041 3.46367 26.8906V21.6599C3.46367 21.3467 3.71694 21.0917 4.03048 21.0917C4.34385 21.0917 4.59866 21.3465 4.59866 21.6599V26.3226H5.05509V15.8303C5.05509 15.824 5.0557 15.8186 5.05603 15.8156L5.05608 15.8152L5.05645 15.8111C5.05645 15.8052 5.05702 15.7996 5.05733 15.7964L5.05739 15.7959L5.05782 15.7906V15.7861L5.05803 15.7861L5.0581 15.7852C5.05942 15.7707 5.06096 15.7538 5.0641 15.7366L5.06468 15.7334L5.06478 15.7334C5.06477 15.7334 5.06478 15.7334 5.0648 15.7333C5.06481 15.7332 5.06483 15.7331 5.06485 15.733L5.06524 15.7306L5.06528 15.7303C5.06557 15.7284 5.06619 15.7243 5.06753 15.7195C5.06777 15.7184 5.068 15.7173 5.06825 15.7161C5.07172 15.6998 5.07609 15.6792 5.08289 15.6593C5.08343 15.6573 5.084 15.6557 5.08446 15.6545L5.08488 15.6535C5.09097 15.6338 5.0987 15.6137 5.10822 15.5946L5.10841 15.5942C5.10869 15.5935 5.10901 15.5928 5.10934 15.5921C5.10994 15.5908 5.11076 15.5891 5.11187 15.5872L6.27115 13.1157L6.27122 13.1155C6.36551 12.9164 6.56485 12.7889 6.78534 12.7889C7.00559 12.7889 7.2065 12.9162 7.29954 13.1157L8.48049 15.7889ZM8.48049 15.7889L8.51129 15.7861L8.51121 15.7852C8.50998 15.7716 8.50855 15.7559 8.50579 15.7398C8.50558 15.7371 8.50526 15.7348 8.50501 15.7332H8.50565L8.50369 15.7234C8.4997 15.7034 8.4953 15.6826 8.48797 15.66C8.48693 15.656 8.48555 15.6525 8.48423 15.6498C8.4784 15.6318 8.47136 15.6138 8.46315 15.596L8.4619 15.5933C8.46172 15.5929 8.46154 15.5925 8.46134 15.5921C8.46109 15.5915 8.46079 15.5909 8.46044 15.5902L8.45941 15.5879L8.45906 15.5876C8.45898 15.5874 8.4589 15.5873 8.45882 15.5872L7.29959 13.1158L8.48049 15.7889ZM5.08702 15.6486L5.08682 15.6491L5.08702 15.6486ZM6.51803 15.2623L6.78527 14.6929L7.0525 15.2633L6.51803 15.2623ZM7.37788 28.1457C7.37788 28.4202 7.15425 28.6426 6.881 28.6426H6.68003C6.41096 28.6426 6.19271 28.4244 6.19271 28.1553V27.4574H7.37787L7.37788 28.1457ZM7.37788 26.3225H6.19271V16.3981H7.37788V26.3225Z" fill="#FF6633" stroke="#FF6633" stroke-width="0.1"/>
<path d="M14.4979 12.6594L14.4807 12.6124L14.4337 12.6296L12.5716 13.3146L12.5247 13.3319L12.5419 13.3788C13.1138 14.9324 14.6105 15.9763 16.2667 15.9763C18.4544 15.9763 20.2349 14.1958 20.2349 12.0081C20.2349 10.1305 18.9016 8.49672 17.0655 8.11997L17.0165 8.10991L17.0064 8.15892L16.6086 10.1031L16.5986 10.152L16.6475 10.1621C17.5184 10.3405 18.1512 11.1171 18.1512 12.008C18.1512 13.0482 17.3054 13.8926 16.2666 13.8926C15.4795 13.8926 14.7682 13.397 14.4979 12.6594Z" fill="#FF6633" stroke="#FF6633" stroke-width="0.1"/>
<path d="M15.8041 10.1603L15.7961 10.1229L15.8421 10.1236L15.8421 10.1234L15.8614 10.0456L15.8318 10.052L15.4227 8.16227L15.4121 8.11341L15.3633 8.12398C13.5519 8.5159 12.2381 10.1468 12.2381 12.0022V12.0522H12.2881H14.2719H14.3219V12.0022C14.3219 11.1205 14.9454 10.3453 15.8041 10.1603Z" fill="#FF6633" stroke="#FF6633" stroke-width="0.1"/>
<path d="M21.8478 9.88127H26.5059C26.8194 9.88127 27.0727 9.6263 27.0727 9.3131C27.0727 8.99982 26.818 8.74492 26.5059 8.74492H21.8478C21.5344 8.74492 21.2796 8.99973 21.2796 9.3131C21.2796 9.62791 21.5345 9.88127 21.8478 9.88127Z" fill="#FF6633" stroke="#FF6633" stroke-width="0.1"/>
<path d="M21.8478 11.8007H26.5059C26.8194 11.8007 27.0727 11.5457 27.0727 11.2325C27.0727 10.9192 26.818 10.6644 26.5059 10.6644H21.8478C21.5344 10.6644 21.2796 10.9192 21.2796 11.2325C21.2796 11.5459 21.5344 11.8007 21.8478 11.8007Z" fill="#FF6633" stroke="#FF6633" stroke-width="0.1"/>
<path d="M21.8478 13.7206H26.5059C26.8194 13.7206 27.0727 13.4656 27.0727 13.1525C27.0727 12.8392 26.818 12.5843 26.5059 12.5843H21.8478C21.5344 12.5843 21.2796 12.8391 21.2796 13.1525C21.2796 13.4658 21.5344 13.7206 21.8478 13.7206Z" fill="#FF6633" stroke="#FF6633" stroke-width="0.1"/>
<path d="M22.3643 17.459L21.8216 16.9163C21.8216 16.9162 21.8215 16.9162 21.8215 16.9162C21.6963 16.7925 21.6491 16.6093 21.6994 16.4399C21.7484 16.2704 21.8874 16.1424 22.0596 16.1058L22.0595 16.1058L22.07 16.1547L22.0596 16.1058L22.3643 17.459ZM22.3643 17.459L20.439 19.3844L18.8364 17.7819L18.8362 17.7816C18.6118 17.5603 18.2521 17.5598 18.0314 17.782L18.0314 17.782L14.4235 21.3899C14.2018 21.6116 14.2016 21.9714 14.4235 22.192C14.5345 22.3029 14.68 22.3584 14.8253 22.3584C14.9706 22.3584 15.1161 22.3029 15.2271 22.192L15.1917 22.1567L15.2271 22.192L18.4333 18.9858L20.0358 20.5883C20.2576 20.8101 20.6174 20.8103 20.838 20.5883C20.8381 20.5882 20.8381 20.5882 20.8381 20.5882L23.1651 18.2612L23.6903 18.7864C23.782 18.8781 23.9056 18.9268 24.0306 18.9268C24.0759 18.9268 24.1219 18.9208 24.1668 18.9069C24.3357 18.8565 24.4639 18.7194 24.5006 18.5469L22.3643 17.459ZM24.4395 15.596L24.4503 15.6448L24.4398 15.5959L24.4397 15.5959C24.4396 15.5959 24.4396 15.5959 24.4395 15.596Z" fill="#FF6633" stroke="#FF6633" stroke-width="0.1"/>
<path d="M25.8068 26.0562C25.8067 26.0562 25.8067 26.0562 25.8066 26.0562H24.0029V20.4065C24.0029 20.022 23.6906 19.7098 23.3062 19.7098C22.9217 19.7098 22.6095 20.022 22.6095 20.4065V26.0562H21.5884V23.1162C21.5884 22.7317 21.2761 22.4195 20.8917 22.4195C20.5072 22.4195 20.195 22.7317 20.195 23.1162V26.0562H19.1739V21.3704C19.1739 20.9859 18.8617 20.6737 18.4772 20.6737C18.0927 20.6737 17.7805 20.9859 17.7805 21.3704V26.0562H16.7594V23.4443C16.7594 23.0598 16.4472 22.7476 16.0627 22.7476C15.6783 22.7476 15.366 23.0598 15.366 23.4443V26.0562H13.5621C13.2488 26.0562 12.9939 26.3109 12.9939 26.623C12.9939 26.9364 13.2488 27.1912 13.5621 27.1912H25.8107C26.1241 27.1912 26.3789 26.9364 26.3789 26.623L26.3789 26.6221C26.3729 26.3097 26.1202 26.0563 25.8068 26.0562Z" fill="#FF6633" stroke="#FF6633" stroke-width="0.1"/>
<path d="M31.5337 11.4329C31.5352 11.1193 31.2802 10.8646 30.9669 10.8646C30.6535 10.8646 30.3987 11.1194 30.3987 11.4327V13.7501C30.3987 14.0635 30.6535 14.3183 30.9669 14.3183C31.2804 14.3183 31.5337 14.0633 31.5337 13.7501V11.4329ZM31.5337 11.4329C31.5337 11.4329 31.5337 11.4329 31.5337 11.433L31.4837 11.4327H31.5337V11.4329Z" fill="#FF6633" stroke="#FF6633" stroke-width="0.1"/>
<path d="M31.5337 15.5203C31.5352 15.2067 31.2802 14.952 30.9669 14.952C30.6535 14.952 30.3987 15.2068 30.3987 15.5201V16.3733C30.3987 16.6866 30.6535 16.9414 30.9669 16.9414C31.2804 16.9414 31.5337 16.6865 31.5337 16.3733V15.5203ZM31.5337 15.5203C31.5337 15.5203 31.5337 15.5203 31.5337 15.5204L31.4837 15.5201H31.5337V15.5203Z" fill="#FF6633" stroke="#FF6633" stroke-width="0.1"/>
<path d="M31.5337 18.2439C31.5352 17.9289 31.2801 17.6756 30.9669 17.6756C30.6535 17.6756 30.3987 17.9304 30.3987 18.2438V24.9267C30.3987 25.24 30.6535 25.4948 30.9669 25.4948C31.2804 25.4948 31.5337 25.2399 31.5337 24.9267V18.2439ZM31.5337 18.2439C31.5337 18.2439 31.5337 18.244 31.5337 18.244L31.4837 18.2438H31.5337V18.2439Z" fill="#FF6633" stroke="#FF6633" stroke-width="0.1"/>
</svg>
