<?xml version="1.0" encoding="utf-8"?>
<!-- Generator: Adobe Illustrator 15.1.0, SVG Export Plug-In . SVG Version: 6.00 Build 0)  -->
<!DOCTYPE svg PUBLIC "-//W3C//DTD SVG 1.1//EN" "http://www.w3.org/Graphics/SVG/1.1/DTD/svg11.dtd">
<svg version="1.1" id="Layer_1" xmlns="http://www.w3.org/2000/svg" xmlns:xlink="http://www.w3.org/1999/xlink" x="0px" y="0px"
	 width="87.92px" height="56.299px" viewBox="-0.5 1.5 87.92 56.299" enable-background="new -0.5 1.5 87.92 56.299"
	 xml:space="preserve">
<path fill="none" stroke="#FF9933" stroke-miterlimit="10" d="M83.089,9.388v43.323H49.617c-1.46,0.001-3.284,2.646-4.104,4.471
	l-1.643-0.549V9.388h-0.456v47.246l-1.642,0.548c-0.82-1.824-2.644-4.47-4.104-4.47H4.195V9.388H0v47.883h86.92V9.388H83.089z"/>
<path fill="none" stroke="#FF9933" stroke-miterlimit="10" d="M45.513,57.182l-1.643-0.549V8.476c0,0-0.364-6.476,5.564-6.476
	h33.654v50.711H49.617C48.157,52.712,46.333,55.357,45.513,57.182z"/>
<path fill="none" stroke="#FF9933" stroke-miterlimit="10" d="M37.668,52.712H4.195V2.001h33.656c5.928,0,5.563,6.476,5.563,6.476
	v48.157l-1.642,0.548C40.952,55.357,39.128,52.712,37.668,52.712z"/>
<line fill="none" stroke="#FF9933" stroke-miterlimit="10" x1="14.775" y1="17.688" x2="36.118" y2="17.688"/>
<line fill="none" stroke="#FF9933" stroke-miterlimit="10" x1="14.775" y1="24.894" x2="36.118" y2="24.894"/>
<line fill="none" stroke="#FF9933" stroke-miterlimit="10" x1="14.775" y1="32.008" x2="36.118" y2="32.008"/>
<line fill="none" stroke="#FF9933" stroke-miterlimit="10" x1="52.353" y1="17.688" x2="73.694" y2="17.688"/>
<line fill="none" stroke="#FF9933" stroke-miterlimit="10" x1="52.353" y1="24.894" x2="68.313" y2="24.894"/>
</svg>
