<?xml version="1.0" encoding="utf-8"?>
<!-- Generator: Adobe Illustrator 15.1.0, SVG Export Plug-In . SVG Version: 6.00 Build 0)  -->
<!DOCTYPE svg PUBLIC "-//W3C//DTD SVG 1.1//EN" "http://www.w3.org/Graphics/SVG/1.1/DTD/svg11.dtd">
<svg version="1.1"
	 id="Layer_1" xmlns:rdf="http://www.w3.org/1999/02/22-rdf-syntax-ns#" xmlns:svg="http://www.w3.org/2000/svg" xmlns:dc="http://purl.org/dc/elements/1.1/" xmlns:sodipodi="http://sodipodi.sourceforge.net/DTD/sodipodi-0.dtd" xmlns:cc="http://creativecommons.org/ns#" xmlns:inkscape="http://www.inkscape.org/namespaces/inkscape"
	 xmlns="http://www.w3.org/2000/svg" xmlns:xlink="http://www.w3.org/1999/xlink" x="0px" y="0px" width="203.84px"
	 height="243.88px" viewBox="48.08 18.026 203.84 243.88" enable-background="new 48.08 18.026 203.84 243.88" xml:space="preserve"
	>
<g transform="translate(0,-952.36216)">
	<path fill="#FF9933" d="M90.64,1104.228c0,1.96,0,3.64,0,5.6h88.76v-5.6H90.64z"/>
	<path fill="#FF9933" d="M90.64,1126.068c0,1.96,0,3.64,0,5.601h76.16c1.96-1.961,3.921-3.921,6.16-5.601H90.64z"/>
	<path fill="#FF9933" d="M48.08,970.388c0,76.44,0,153.16,0,229.6h113.96c-1.399-1.68-2.521-3.64-3.64-5.601H53.68V975.988h162.4
		v139.44c1.96,0.28,3.641,0.84,5.6,1.4v-146.44H48.08z"/>
	<path fill="#FF9933" d="M118.08,1052.428c0,5.88,0,11.76,0,17.36h33.88v-17.36h-5.6v11.76h-22.68v-11.76H118.08z"/>
	<path fill="#FF9933" d="M134.88,1034.788c-5.32,0-9.8,4.48-9.8,9.8c0,5.32,4.48,9.8,9.8,9.8c5.32,0,9.8-4.48,9.8-9.8
		C144.68,1039.268,140.2,1034.788,134.88,1034.788z M134.88,1040.388c2.52,0,4.2,1.96,4.2,4.2c0,2.52-1.96,4.2-4.2,4.2
		c-2.52,0-4.2-1.96-4.2-4.2C130.68,1042.348,132.36,1040.388,134.88,1040.388z"/>
	<path fill="#FF9933" d="M134.88,1016.868c-19.6,0-35.56,15.96-35.56,35.56s15.96,35.56,35.56,35.56
		c19.601,0,35.56-15.96,35.56-35.56S154.48,1016.868,134.88,1016.868z M134.88,1022.468c16.521,0,29.96,13.44,29.96,29.96
		s-13.439,29.96-29.96,29.96c-16.52,0-29.96-13.44-29.96-29.96S118.36,1022.468,134.88,1022.468z"/>
	<path fill="#FF9933" d="M90.64,1147.908c0,1.96,0,3.64,0,5.601h63.84c0.56-1.961,1.119-3.641,1.959-5.601H90.64z"/>
	<path fill="#FF9933" d="M206.279,1122.988c-25.199,0-45.639,20.44-45.639,45.64c0,25.2,20.439,45.641,45.639,45.641
		c25.201,0,45.641-20.16,45.641-45.641C251.92,1143.708,231.48,1122.988,206.279,1122.988z M206.279,1129.708
		c21.841,0,39.201,17.36,39.201,39.2s-17.36,39.2-39.201,39.2c-21.84,0-39.199-17.641-39.199-39.2
		C167.08,1147.068,184.721,1129.708,206.279,1129.708L206.279,1129.708z"/>
	<path fill="#FF9933" d="M206.84,1140.349c-0.84,0-1.96,0-3.08,0l0,0c-2.52,0.279-5.32,0.84-7.84,1.959
		c-10.08,4.48-16.8,14.561-16.8,25.48h6.159c0-8.4,5.32-16.24,13.16-19.6c7.84-3.36,16.801-1.4,22.961,4.48
		c6.16,6.159,7.84,15.119,4.479,23.239c-2.239,5.32-6.44,9.521-11.479,11.479c-1.4-2.239-3.92-3.359-6.16-3.359
		c-4.48,0-8.12,3.641-8.12,8.12s3.64,7.841,8.12,7.841c3.92,0,7-2.521,7.84-6.44c7.279-2.521,13.16-7.841,16.24-15.12
		c4.479-10.359,1.959-22.4-6.16-30.521C220.84,1143.148,213.84,1140.349,206.84,1140.349L206.84,1140.349z"/>
</g>
</svg>
