<?xml version="1.0" encoding="UTF-8"?>
<svg width="152px" height="177px" viewBox="0 0 152 177" version="1.1" xmlns="http://www.w3.org/2000/svg" xmlns:xlink="http://www.w3.org/1999/xlink">
    <!-- Generator: Sketch 48.2 (47327) - http://www.bohemiancoding.com/sketch -->
    <title>Prism for employees and candidates</title>
    <desc>Created with Sketch.</desc>
    <defs></defs>
    <g id="Talent-Acquisition" stroke="none" stroke-width="1" fill="none" fill-rule="evenodd" transform="translate(-153.000000, -840.000000)">
        <g id="Container-1" transform="translate(81.000000, 678.000000)" stroke="#FF6633">
            <g id="col-md-4" transform="translate(0.000000, 165.000000)">
                <g id="Prism-for-employees-and-candidates" transform="translate(74.000000, 0.000000)">
                    <g id="Prism-icon-Frame" stroke-width="2">
                        <path d="M74,-1.1548768 L149,42.1728259 L149,128.827174 L74,172.154877 L-1,128.827174 L-1,42.1728259 L74,-1.1548768 Z" id="Polygon"></path>
                    </g>
                    <path d="M65,70 L83,70" id="Stroke-1" stroke-width="1.5" stroke-linejoin="bevel"></path>
                    <polygon id="Stroke-2" stroke-width="1.5" points="74.089172 54.0216958 46.089172 69.8879911 46.089172 101.977128 74.089172 117.843423 101.732484 101.977128 101.910828 69.8879911"></polygon>
                    <polyline id="Stroke-4" stroke-width="1.5" stroke-linejoin="bevel" points="101.67866 101.977128 101.73252 101.977128 74.0892076 54.0216958 46.0555006 101.977128"></polyline>
                    <path d="M64,102 L82,102" id="Stroke-1" stroke-width="1.5" stroke-linejoin="bevel"></path>
                    <polyline id="Stroke-8" stroke-width="1.5" stroke-linejoin="bevel" points="55 86 73.5888769 118 92 86.1029721"></polyline>
                </g>
            </g>
        </g>
    </g>
</svg>