<?xml version="1.0" encoding="utf-8"?>
<!-- Generator: Adobe Illustrator 15.1.0, SVG Export Plug-In . SVG Version: 6.00 Build 0)  -->
<!DOCTYPE svg PUBLIC "-//W3C//DTD SVG 1.1//EN" "http://www.w3.org/Graphics/SVG/1.1/DTD/svg11.dtd">
<svg version="1.1"
	 id="Layer_1" xmlns:rdf="http://www.w3.org/1999/02/22-rdf-syntax-ns#" xmlns:svg="http://www.w3.org/2000/svg" xmlns:dc="http://purl.org/dc/elements/1.1/" xmlns:sodipodi="http://sodipodi.sourceforge.net/DTD/sodipodi-0.dtd" xmlns:cc="http://creativecommons.org/ns#" xmlns:inkscape="http://www.inkscape.org/namespaces/inkscape"
	 xmlns="http://www.w3.org/2000/svg" xmlns:xlink="http://www.w3.org/1999/xlink" x="0px" y="0px" width="91.4px" height="56.79px"
	 viewBox="14.9 47.061 91.4 56.79" enable-background="new 14.9 47.061 91.4 56.79" xml:space="preserve">
<rect x="15.6" y="47.761" fill="none" stroke="#FF9933" stroke-width="1.145" stroke-miterlimit="10" width="69.7" height="11.105"/>
<rect x="15.6" y="66.128" fill="none" stroke="#FF9933" stroke-width="1.1048" stroke-miterlimit="10" width="47.511" height="11.105"/>
<rect x="15.6" y="84.494" fill="none" stroke="#FF9933" stroke-width="1.0327" stroke-miterlimit="10" width="30.24" height="11.106"/>
</svg>
