<?xml version="1.0" encoding="utf-8"?>
<!-- Generator: Adobe Illustrator 15.1.0, SVG Export Plug-In . SVG Version: 6.00 Build 0)  -->
<!DOCTYPE svg PUBLIC "-//W3C//DTD SVG 1.1//EN" "http://www.w3.org/Graphics/SVG/1.1/DTD/svg11.dtd">
<svg version="1.1" id="Layer_1" xmlns="http://www.w3.org/2000/svg" xmlns:xlink="http://www.w3.org/1999/xlink" x="0px" y="0px"
	 width="280px" height="234.5px" viewBox="10 22.75 280 234.5" enable-background="new 10 22.75 280 234.5" xml:space="preserve">
<g display="none">
	<rect x="-2593.125" y="-1087.625" display="inline" width="3685.5" height="1811.25"/>
</g>
<g display="none">
	<g display="inline">
		<g>
			<path d="M213.875,130.375c14,0,25.375,11.375,25.375,25.375s-11.375,25.375-25.375,25.375S188.5,169.75,188.5,155.75
				S199.875,130.375,213.875,130.375 M213.875,121.625c-18.375,0-34.125,14.875-34.125,34.125s14.875,34.125,34.125,34.125
				S248,175,248,155.75S232.25,121.625,213.875,121.625L213.875,121.625z"/>
		</g>
	</g>
	<polyline display="inline" stroke="#231E20" stroke-miterlimit="10" points="198.125,182 198.125,224 214.75,206.5 230.5,224 
		230.5,181.125 	"/>
	<g display="inline">
		<path d="M281.25,31.5v217.875H18.75V31.5H281.25 M290,22.75H10v235.375h280V22.75L290,22.75z"/>
	</g>
	<g display="inline">
		<line fill="none" stroke="#000000" stroke-miterlimit="10" x1="47.625" y1="64.75" x2="252.375" y2="64.75"/>
		<line fill="none" stroke="#000000" stroke-miterlimit="10" x1="47.625" y1="93.625" x2="252.375" y2="93.625"/>
		<g>
			<line fill="none" stroke="#000000" stroke-miterlimit="10" x1="47.625" y1="146.125" x2="144.75" y2="146.125"/>
			<line fill="none" stroke="#000000" stroke-miterlimit="10" x1="47.625" y1="179.375" x2="144.75" y2="179.375"/>
			<line fill="none" stroke="#000000" stroke-miterlimit="10" x1="47.625" y1="212.625" x2="144.75" y2="212.625"/>
		</g>
	</g>
</g>
<g>
	<g>
		<path fill="#FF9933" d="M213.875,121.625c-18.375,0-34.125,14.875-34.125,34.125c0,12.25,7,22.75,16.625,28.875v45.5L215.625,210
			l17.5,20.125V183.75c8.75-6.125,14.875-16.625,14.875-28C248,136.5,232.25,121.625,213.875,121.625z M227.875,217.875
			l-13.125-15.75l-14.875,16.625v-31.5c4.375,1.75,8.75,2.625,13.125,2.625c5.25,0,10.5-0.875,14.875-3.5V217.875L227.875,217.875z
			 M213.875,185.5c-16.625,0-29.75-13.125-29.75-29.75S197.25,126,213.875,126s29.75,13.125,29.75,29.75
			S229.625,185.5,213.875,185.5z"/>
		<path fill="#FF9933" d="M10,257.25h280V22.75H10V257.25z M14.375,27.125h271.25V253.75H14.375V27.125z"/>
		<rect x="47.625" y="63" fill="#FF9933" width="205.625" height="4.375"/>
		<rect x="47.625" y="91" fill="#FF9933" width="205.625" height="4.375"/>
		<rect x="47.625" y="143.5" fill="#FF9933" width="97.125" height="4.375"/>
		<rect x="47.625" y="176.75" fill="#FF9933" width="97.125" height="4.375"/>
		<rect x="47.625" y="210" fill="#FF9933" width="97.125" height="4.375"/>
	</g>
</g>
<g display="none">
	<g display="inline">
		<g>
			<path d="M213.875,139.125c8.75,0,16.625,7,16.625,16.625s-7,16.625-16.625,16.625s-16.625-7-16.625-16.625
				S204.25,139.125,213.875,139.125 M213.875,121.625c-18.375,0-34.125,14.875-34.125,34.125s14.875,34.125,34.125,34.125
				S248,175,248,155.75S232.25,121.625,213.875,121.625L213.875,121.625z"/>
		</g>
	</g>
	<polyline display="inline" points="192.875,176.75 192.875,231.875 214.75,208.25 235.75,231.875 235.75,176.75 	"/>
	<g display="inline">
		<path d="M272.5,40.25v200.375h-245V40.25H272.5 M290,22.75H10v235.375h280V22.75L290,22.75z"/>
	</g>
	
		<line display="inline" fill="none" stroke="#0F8EDB" stroke-width="2" stroke-miterlimit="10" x1="47.625" y1="64.75" x2="252.375" y2="64.75"/>
	
		<line display="inline" fill="none" stroke="#000000" stroke-width="2" stroke-miterlimit="10" x1="47.625" y1="93.625" x2="252.375" y2="93.625"/>
	
		<line display="inline" fill="none" stroke="#0F8EDB" stroke-width="2" stroke-miterlimit="10" x1="47.625" y1="146.125" x2="144.75" y2="146.125"/>
	
		<line display="inline" fill="none" stroke="#000000" stroke-width="2" stroke-miterlimit="10" x1="47.625" y1="179.375" x2="144.75" y2="179.375"/>
	
		<line display="inline" fill="none" stroke="#000000" stroke-width="2" stroke-miterlimit="10" x1="47.625" y1="212.625" x2="144.75" y2="212.625"/>
</g>
<g display="none">
	<circle display="inline" cx="150" cy="140" r="140"/>
	<g display="inline">
		<g>
			<g>
				<path d="M189.375,133.875c8.75,0,15.75,7,15.75,15.75s-7,15.75-15.75,15.75s-15.75-7-15.75-15.75
					S180.625,133.875,189.375,133.875 M189.375,128.625c-11.375,0-21,9.625-21,21s9.625,21,21,21s21-9.625,21-21
					S201.625,128.625,189.375,128.625L189.375,128.625z"/>
			</g>
		</g>
		<g>
			<polygon points="203.375,199.5 190.25,185.5 177.125,199.5 177.125,166.25 182.375,166.25 182.375,185.5 190.25,177.625 
				197.25,185.5 197.25,165.375 203.375,165.375 			"/>
		</g>
		<g>
			<path d="M232.25,71.75v135.625H67.75V71.75H232.25 M237.5,66.5h-175v147h175V66.5L237.5,66.5z"/>
		</g>
		<g>
			<g>
				<rect x="86.125" y="90.125" width="128.625" height="5.25"/>
			</g>
			<g>
				<rect x="86.125" y="108.5" width="128.625" height="5.25"/>
			</g>
			<g>
				<g>
					<rect x="86.125" y="140.875" width="60.375" height="5.25"/>
				</g>
				<g>
					<rect x="86.125" y="161.875" width="60.375" height="5.25"/>
				</g>
				<g>
					<rect x="86.125" y="182.875" width="60.375" height="5.25"/>
				</g>
			</g>
		</g>
	</g>
</g>
<g display="none">
	<g display="inline">
		<rect x="10" y="22.75" width="280" height="235.375"/>
	</g>
	<g display="inline">
		<g>
			<circle cx="217.375" cy="161.875" r="34.125"/>
		</g>
		<polyline points="201.625,188.125 201.625,231 218.25,212.625 234,230.125 234,187.25 		"/>
	</g>
	<g display="inline">
		<line fill="none" stroke="#FFFFFF" stroke-width="2" stroke-miterlimit="10" x1="47.625" y1="62.125" x2="252.375" y2="62.125"/>
		
			<line fill="none" stroke="#FFFFFF" stroke-width="2" stroke-miterlimit="10" x1="47.625" y1="100.625" x2="252.375" y2="100.625"/>
		<line fill="none" stroke="#FFFFFF" stroke-width="2" stroke-miterlimit="10" x1="47.625" y1="140" x2="144.75" y2="140"/>
		<line fill="none" stroke="#FFFFFF" stroke-width="2" stroke-miterlimit="10" x1="47.625" y1="179.375" x2="144.75" y2="179.375"/>
		<line fill="none" stroke="#FFFFFF" stroke-width="2" stroke-miterlimit="10" x1="47.625" y1="217.875" x2="144.75" y2="217.875"/>
	</g>
</g>
<g display="none">
	<g display="inline">
		<rect x="10" y="22.75" width="280" height="235.375"/>
	</g>
	<g display="inline">
		<g>
			<circle cx="217.375" cy="161.875" r="34.125"/>
		</g>
		<polyline points="201.625,188.125 201.625,231 218.25,212.625 234,230.125 234,187.25 		"/>
	</g>
	<g display="inline">
		<line fill="none" stroke="#FFFFFF" stroke-width="2" stroke-miterlimit="10" x1="47.625" y1="62.125" x2="252.375" y2="62.125"/>
		
			<line fill="none" stroke="#FFFFFF" stroke-width="2" stroke-miterlimit="10" x1="47.625" y1="100.625" x2="252.375" y2="100.625"/>
		<line fill="none" stroke="#FFFFFF" stroke-width="2" stroke-miterlimit="10" x1="47.625" y1="140" x2="144.75" y2="140"/>
		<line fill="none" stroke="#FFFFFF" stroke-width="2" stroke-miterlimit="10" x1="47.625" y1="179.375" x2="144.75" y2="179.375"/>
		<line fill="none" stroke="#FFFFFF" stroke-width="2" stroke-miterlimit="10" x1="47.625" y1="217.875" x2="144.75" y2="217.875"/>
	</g>
</g>
</svg>
