<?xml version="1.0" encoding="utf-8"?>
<!-- Generator: Adobe Illustrator 15.1.0, SVG Export Plug-In . SVG Version: 6.00 Build 0)  -->
<!DOCTYPE svg PUBLIC "-//W3C//DTD SVG 1.1//EN" "http://www.w3.org/Graphics/SVG/1.1/DTD/svg11.dtd">
<svg version="1.1" id="Layer_1" xmlns="http://www.w3.org/2000/svg" xmlns:xlink="http://www.w3.org/1999/xlink" x="0px" y="0px"
	 width="71.734px" height="71.704px" viewBox="-0.372 -0.199 71.734 71.704" enable-background="new -0.372 -0.199 71.734 71.704"
	 xml:space="preserve">
<g transform="translate(0.000000,453.000000) scale(0.100000,-0.100000)">
	<path fill="#FF9933" stroke="#FF9933" stroke-width="2" stroke-miterlimit="10" d="M308.076,4525.112
		c-151.699-21.558-270.908-133.105-300.591-281.211c-5.469-27.808-6.875-46.245-5.937-81.245
		c1.562-53.428,11.25-94.829,32.969-140.605c60.771-127.954,191.538-207.163,332.925-201.851
		c74.834,2.969,134.517,24.058,202.319,71.865l5.469,3.75l61.396-4.683c33.75-2.5,61.714-4.38,62.026-3.911
		c0.313,0.317-7.026,25.313-16.558,55.62c-9.375,30.151-17.031,55.933-17.031,57.183c0,1.094,3.906,10.151,8.594,19.839
		c59.99,125.142,41.714,274.81-46.558,380.576c-54.214,64.839-126.392,106.553-212.007,122.646
		C392.905,4527.148,330.889,4528.398,308.076,4525.112z M397.441,4511.054c64.365-8.438,125.767-35.308,175.444-77.021
		c122.017-102.329,156.86-276.528,83.115-416.514l-7.656-14.531l15.469-49.678c8.433-27.344,14.995-49.995,14.683-50.464
		c-0.464-0.313-25.151,1.25-54.834,3.438l-54.209,4.058l-13.594-9.834c-63.276-46.25-138.423-69.37-214.351-66.089
		c-124.985,5.313-236.533,77.803-291.372,189.194c-17.495,35.62-27.808,70.146-32.651,108.579
		c-3.906,30.151-2.656,73.896,2.964,103.433c10.161,53.74,34.531,106.855,69.214,150.757c13.437,17.031,43.589,46.245,61.401,59.209
		c49.521,36.563,106.548,59.37,165.293,66.245C334.946,4513.867,378.066,4513.554,397.441,4511.054z"/>
	<path fill="#FF9933" stroke="#FF9933" stroke-width="2" stroke-miterlimit="10" d="M329.165,4353.579
		c-14.37-1.724-35.615-7.656-49.214-13.75c-41.084-18.75-75.615-58.589-88.428-102.021c-3.901-13.438-3.589-14.531,4.844-16.089
		l5.469-0.942l2.813,10.469c9.844,37.5,41.401,75.303,78.271,93.584c38.12,18.901,82.803,20.625,122.173,4.688
		c13.75-5.469,31.089-16.089,43.276-26.401c11.25-9.375,26.719-29.375,34.683-44.839l7.036-13.594l-12.5-1.875
		c-6.875-1.094-12.5-2.5-12.5-3.125c0-1.719,40.464-49.99,41.87-49.99c1.094,0,23.901,61.235,23.12,62.178
		c-0.308,0.156-5.938-0.625-12.651-2.036c-6.719-1.245-12.5-2.021-12.812-1.714c-0.313,0.156-3.594,6.719-7.344,14.375
		c-24.526,50.464-73.428,84.834-129.512,91.084C351.04,4355.449,346.04,4355.449,329.165,4353.579z"/>
	<path fill="#FF9933" stroke="#FF9933" stroke-width="2" stroke-miterlimit="10" d="M178.56,4140.625
		c-6.719-15.62-12.5-29.365-12.964-30.615c-0.786-1.719,0-2.031,3.589-1.406c2.5,0.625,8.438,1.406,13.281,2.031l8.75,0.938
		l4.219-10.781c18.589-48.745,59.521-85.615,110.61-99.834c21.558-5.938,53.74-6.87,76.24-2.183
		c61.709,12.651,110.61,58.896,126.392,119.36c1.87,6.87,3.125,12.651,2.813,12.808c-0.313,0.313-3.438,0.625-7.188,0.938
		l-6.719,0.469l-2.656-10.156c-12.808-48.12-50.151-88.115-96.553-104.048c-20.464-7.031-34.99-9.063-56.709-7.969
		c-27.964,1.25-52.808,9.375-75.615,24.683c-12.188,8.13-30.464,25.938-39.214,38.12c-6.719,9.38-19.531,34.063-19.531,37.656
		c0,2.344,2.661,3.125,14.531,4.526c6.558,0.786,8.901,1.567,8.438,2.974c-1.406,3.589-37.026,50.928-38.433,50.928
		C191.216,4169.062,185.122,4156.25,178.56,4140.625z"/>
</g>
</svg>
