<?xml version="1.0" encoding="UTF-8"?>
<svg width="77px" height="47px" viewBox="0 0 77 47" version="1.1" xmlns="http://www.w3.org/2000/svg" xmlns:xlink="http://www.w3.org/1999/xlink">
    <!-- Generator: Sketch 48.2 (47327) - http://www.bohemiancoding.com/sketch -->
    <title>E-i Copy 2</title>
    <desc>Created with Sketch.</desc>
    <defs></defs>
    <g id="ERT-i-for-Culture" stroke="none" stroke-width="1" fill="none" fill-rule="evenodd" transform="translate(-886.000000, -905.000000)">
        <g id="Container-2" transform="translate(0.000000, 674.000000)" fill="#F9B858">
            <g id="T-i" transform="translate(884.000000, 216.000000)">
                <path d="M13.3898305,61.1 L13.3898305,57.33 L19.5491525,57.33 L19.5491525,19.305 L6.36016949,19.305 L6.36016949,26.715 L2.14237288,26.715 L2.14237288,15.405 L41.6423729,15.405 L41.6423729,26.715 L37.3576271,26.715 L37.3576271,19.305 L24.2355932,19.305 L24.2355932,57.33 L30.3949153,57.33 L30.3949153,61.1 L13.3898305,61.1 Z M71.9033898,20.93 L73.0415254,15.405 L78.1966102,15.405 L77.0584746,20.93 L71.9033898,20.93 Z M75.0499995,57.46 C75.0499995,57.46 75.0499995,57.46 75.0499995,57.46 Z M75.05,57.46 L74.3135593,61.1 C74.3135593,61.1 72.9076271,61.23 71.970339,61.23 C69.4262712,61.23 65.409322,60.645 65.409322,55.51 C65.409322,54.86 65.6101695,54.015 65.7440678,53.105 L70.0288136,32.045 L64.0033898,32.045 L64.7398305,28.405 L75.3177966,28.405 L70.3635593,52.65 C70.229661,53.365 70.1627119,54.015 70.1627119,54.535 C70.1627119,57.265 71.7694915,57.59 73.3762712,57.59 C74.5137471,57.59 75.0493789,57.4601507 75.0499995,57.4600001 Z M44.1864407,39.975 L44.1864407,36.075 L56.5917078,36.075 L56.5917078,39.975 L44.1864407,39.975 Z" id="Combined-Shape"></path>
            </g>
        </g>
    </g>
</svg>