<?xml version="1.0" encoding="utf-8"?>
<!-- Generator: Adobe Illustrator 15.1.0, SVG Export Plug-In . SVG Version: 6.00 Build 0)  -->
<!DOCTYPE svg PUBLIC "-//W3C//DTD SVG 1.1//EN" "http://www.w3.org/Graphics/SVG/1.1/DTD/svg11.dtd">
<svg version="1.1" id="Layer_1" xmlns="http://www.w3.org/2000/svg" xmlns:xlink="http://www.w3.org/1999/xlink" x="0px" y="0px"
	 width="48px" height="45px" viewBox="0 0 48 45" enable-background="new 0 0 48 45" xml:space="preserve">
<rect x="3" y="13" fill-rule="evenodd" clip-rule="evenodd" fill="#FFFFFF" width="3" height="27"/>
<rect x="42" y="13" fill-rule="evenodd" clip-rule="evenodd" fill="#FFFFFF" width="3" height="27"/>
<g>
	<defs>
		<rect id="SVGID_1_" width="48" height="45"/>
	</defs>
	<use xlink:href="#SVGID_1_"  overflow="visible" fill="#FFFFFF"/>
	<clipPath id="SVGID_2_">
		<use xlink:href="#SVGID_1_"  overflow="visible"/>
	</clipPath>
	<path clip-path="url(#SVGID_2_)" fill-rule="evenodd" clip-rule="evenodd" fill="#FFFFFF" d="M48,11c0,1.1-0.9,2-2,2H2
		c-1.1,0-2-0.9-2-2v-1c0-1.1,0.9-2,2-2h44c1.1,0,2,0.9,2,2V11z"/>
	<path clip-path="url(#SVGID_2_)" fill-rule="evenodd" clip-rule="evenodd" fill="#FFFFFF" d="M48,43c0,1.1-0.9,2-2,2H2
		c-1.1,0-2-0.9-2-2v-1c0-1.1,0.9-2,2-2h44c1.1,0,2,0.9,2,2V43z"/>
	<path clip-path="url(#SVGID_2_)" fill-rule="evenodd" clip-rule="evenodd" fill="#FFFFFF" d="M18,5c0-2.762,2.238-5,5-5
		c2.762,0,5,2.238,5,5s-2.238,5-5,5C20.238,10,18,7.762,18,5 M23,7.5c1.38,0,2.5-1.119,2.5-2.5S24.38,2.5,23,2.5
		c-1.381,0-2.5,1.119-2.5,2.5S21.619,7.5,23,7.5"/>
	<path clip-path="url(#SVGID_2_)" fill-rule="evenodd" clip-rule="evenodd" fill="#FFFFFF" d="M38.121,16.879
		c-1.172-1.172-3.07-1.172-4.242,0c-0.936,0.935-1.111,2.33-0.553,3.451l-2.994,2.994C29.93,23.123,29.481,23,29,23
		c-1.305,0-2.403,0.838-2.816,2h-4.366c-0.144-0.408-0.37-0.795-0.697-1.121c-1.171-1.172-3.07-1.172-4.242,0
		c-0.909,0.908-1.104,2.252-0.603,3.357l-3.04,3.039c-1.104-0.502-2.449-0.307-3.357,0.604c-1.172,1.172-1.172,3.07,0,4.242
		s3.07,1.172,4.242,0c0.936-0.936,1.111-2.332,0.553-3.453l2.994-2.994c1.123,0.559,2.517,0.383,3.453-0.553
		c0.327-0.328,0.553-0.713,0.697-1.121h4.366c0.413,1.162,1.512,2,2.816,2c1.657,0,3-1.344,3-3c0-0.443-0.103-0.861-0.275-1.24
		l3.037-3.037c1.105,0.502,2.45,0.306,3.359-0.602C39.293,19.949,39.293,18.051,38.121,16.879 M19.707,26.707
		c-0.329,0.33-0.822,0.363-1.206,0.139l-0.346-0.348c-0.225-0.383-0.191-0.877,0.138-1.205c0.391-0.391,1.023-0.391,1.414,0
		S20.098,26.316,19.707,26.707 M29,27c-0.553,0-1-0.447-1-1s0.447-1,1-1s1,0.447,1,1S29.553,27,29,27"/>
</g>
</svg>
