<?xml version="1.0" encoding="utf-8"?>
<!-- Generator: Adobe Illustrator 22.1.0, SVG Export Plug-In . SVG Version: 6.00 Build 0)  -->
<svg version="1.1" id="Layer_1" xmlns="http://www.w3.org/2000/svg" xmlns:xlink="http://www.w3.org/1999/xlink" x="0px" y="0px"
	 viewBox="0 0 428 55" style="enable-background:new 0 0 428 55;" xml:space="preserve">
<style type="text/css">
	.st0{clip-path:url(#SVGID_2_);fill:url(#SVGID_3_);}
	.st1{clip-path:url(#SVGID_5_);fill:url(#SVGID_6_);}
	.st2{clip-path:url(#SVGID_8_);fill:url(#SVGID_9_);}
	.st3{clip-path:url(#SVGID_11_);fill:url(#SVGID_12_);}
	.st4{clip-path:url(#SVGID_14_);fill:url(#SVGID_15_);}
	.st5{clip-path:url(#SVGID_17_);fill:url(#SVGID_18_);}
</style>
<g>
	<g>
		<defs>
			<polygon id="SVGID_1_" points="1.1,14.6 46.7,14.6 23.9,1.4 			"/>
		</defs>
		<clipPath id="SVGID_2_">
			<use xlink:href="#SVGID_1_"  style="overflow:visible;"/>
		</clipPath>
		
			<linearGradient id="SVGID_3_" gradientUnits="userSpaceOnUse" x1="-546.9468" y1="8.6377" x2="-545.9468" y2="8.6377" gradientTransform="matrix(-2.0561 26.4394 26.4394 2.0561 -1328.2094 14440.2402)">
			<stop  offset="0" style="stop-color:#F15A22"/>
			<stop  offset="1" style="stop-color:#FAA61A"/>
		</linearGradient>
		<polygon class="st0" points="1.3,-2.1 0,14.5 46.5,18.1 47.8,1.5 		"/>
	</g>
</g>
<g>
	<g>
		<defs>
			<polygon id="SVGID_4_" points="1.1,41 23.9,54.2 46.7,41 			"/>
		</defs>
		<clipPath id="SVGID_5_">
			<use xlink:href="#SVGID_4_"  style="overflow:visible;"/>
		</clipPath>
		
			<linearGradient id="SVGID_6_" gradientUnits="userSpaceOnUse" x1="-575.0997" y1="-31.1063" x2="-574.0997" y2="-31.1063" gradientTransform="matrix(0 -22.1741 -22.1741 0 -665.8603 -12694.9961)">
			<stop  offset="0" style="stop-color:#F15A22"/>
			<stop  offset="1" style="stop-color:#FAA61A"/>
		</linearGradient>
		<rect x="1.1" y="41" class="st1" width="45.7" height="13.2"/>
	</g>
</g>
<g>
	<g>
		<defs>
			<polygon id="SVGID_7_" points="23.9,54.2 23.9,54.2 46.7,41 46.7,14.6 			"/>
		</defs>
		<clipPath id="SVGID_8_">
			<use xlink:href="#SVGID_7_"  style="overflow:visible;"/>
		</clipPath>
		
			<linearGradient id="SVGID_9_" gradientUnits="userSpaceOnUse" x1="-582.0194" y1="-1.363" x2="-581.0194" y2="-1.363" gradientTransform="matrix(-22.9227 -6.908 -6.908 22.9227 -13302.1123 -3950.9121)">
			<stop  offset="0" style="stop-color:#F15A22"/>
			<stop  offset="1" style="stop-color:#FAA61A"/>
		</linearGradient>
		<polygon class="st2" points="57.7,17.9 25.8,8.3 13,50.9 44.8,60.5 		"/>
	</g>
</g>
<g>
	<g>
		<defs>
			<polygon id="SVGID_10_" points="1.1,41 23.9,54.2 1.1,14.6 			"/>
		</defs>
		<clipPath id="SVGID_11_">
			<use xlink:href="#SVGID_10_"  style="overflow:visible;"/>
		</clipPath>
		
			<linearGradient id="SVGID_12_" gradientUnits="userSpaceOnUse" x1="-543.5959" y1="-27.5959" x2="-542.5955" y2="-27.5959" gradientTransform="matrix(24.6673 -5.0018 -5.0018 -24.6673 13268.5898 -3362.2734)">
			<stop  offset="0" style="stop-color:#F15A22"/>
			<stop  offset="0.1714" style="stop-color:#F15A22"/>
			<stop  offset="1" style="stop-color:#FAA61A"/>
		</linearGradient>
		<polygon class="st3" points="2,58.6 31.6,52.6 23,10.2 -6.7,16.2 		"/>
	</g>
</g>
<g>
	<g>
		<defs>
			<polygon id="SVGID_13_" points="1.1,14.6 1.1,41 23.9,1.4 			"/>
		</defs>
		<clipPath id="SVGID_14_">
			<use xlink:href="#SVGID_13_"  style="overflow:visible;"/>
		</clipPath>
		
			<linearGradient id="SVGID_15_" gradientUnits="userSpaceOnUse" x1="-520.4006" y1="-26.5439" x2="-519.4006" y2="-26.5439" gradientTransform="matrix(13.5917 3.4235 3.4235 -13.5917 7160.8823 1438.0803)">
			<stop  offset="0" style="stop-color:#F15A22"/>
			<stop  offset="1" style="stop-color:#FAA61A"/>
		</linearGradient>
		<polygon class="st4" points="-8.3,38.6 22.5,46.4 33.3,3.8 2.4,-4 		"/>
	</g>
</g>
<g>
	<g>
		<defs>
			<polygon id="SVGID_16_" points="46.7,41 46.7,14.6 23.9,1.4 			"/>
		</defs>
		<clipPath id="SVGID_17_">
			<use xlink:href="#SVGID_16_"  style="overflow:visible;"/>
		</clipPath>
		
			<linearGradient id="SVGID_18_" gradientUnits="userSpaceOnUse" x1="-574.0151" y1="22.5449" x2="-573.0148" y2="22.5449" gradientTransform="matrix(-14.5149 7.6838 7.6838 14.5149 -8457.6465 4098.208)">
			<stop  offset="0" style="stop-color:#F15A22"/>
			<stop  offset="0.1714" style="stop-color:#F15A22"/>
			<stop  offset="0.1898" style="stop-color:#F15E22"/>
			<stop  offset="0.3475" style="stop-color:#F47A20"/>
			<stop  offset="0.5075" style="stop-color:#F78D1E"/>
			<stop  offset="0.6687" style="stop-color:#F99B1C"/>
			<stop  offset="0.8319" style="stop-color:#FAA31B"/>
			<stop  offset="1" style="stop-color:#FAA61A"/>
		</linearGradient>
		<polygon class="st5" points="41.7,-8 7.5,10.1 28.9,50.4 63.1,32.3 		"/>
	</g>
</g>
<g>
	<g>
		<path d="M67.8,33.2c0,0,4.1,3.7,8.6,3.7c1.8,0,3.8-0.7,3.8-2.9c0-4.3-16.2-4.1-16.2-15.2c0-6.6,5.6-11,12.7-11
			c7.7,0,11.5,4.1,11.5,4.1l-3.7,7.2c0,0-3.6-3.2-7.9-3.2c-1.8,0-3.8,0.8-3.8,2.8c0,4.5,16.2,3.7,16.2,15.1c0,6-4.6,11.1-12.6,11.1
			c-8.4,0-13.1-5.1-13.1-5.1L67.8,33.2z"/>
	</g>
	<g>
		<path d="M96.9,8.5h8.8v22.7c0,3.8,2.5,5.8,6.2,5.8c3.8,0,6.2-2,6.2-5.8V8.5h8.8v22.7c0,8.1-5.9,13.8-15,13.8
			c-9.1,0-15.1-5.7-15.1-13.8C96.9,31.2,96.9,8.5,96.9,8.5z"/>
	</g>
	<g>
		<path d="M137.3,8.5h12.5c3.7,0,5.4,0.3,7,0.9c4.1,1.6,6.6,5.2,6.6,10.4c0,3.8-1.8,8-5.4,9.8v0.1c0,0,0.5,0.7,1.4,2.2l7,12.5h-9.8
			l-6.4-12.1h-4.1v12.1h-8.8V8.5z M149.9,24.8c2.8,0,4.6-1.6,4.6-4.4c0-2.7-1-4.3-5.4-4.3h-3v8.7H149.9z"/>
	</g>
	<g>
		<polygon points="174,8.5 196.5,8.5 196.5,16 182.8,16 182.8,22.6 193.7,22.6 193.7,30.1 182.8,30.1 182.8,36.9 197.2,36.9 
			197.2,44.4 174,44.4 		"/>
	</g>
	<g>
		<path d="M206.5,41.5h4.6V12h-4.6V9.1h16.1c2.2,0,4.4,0.2,6,1c3.5,1.6,5.7,5,5.7,9.6c0,4.9-2.5,8.6-6.4,10
			c-1.7,0.6-3.3,0.7-5.2,0.7h-8v11h4.6v2.9h-12.7L206.5,41.5L206.5,41.5z M222.2,27.4c1.7,0,3.1-0.3,4.3-0.7c2.6-1.1,4.2-3.6,4.2-7
			c0-3.2-1.3-5.5-3.7-6.7c-1.3-0.6-2.9-0.9-4.8-0.9h-7.6v15.3C214.6,27.4,222.2,27.4,222.2,27.4z"/>
	</g>
	<g>
		<polygon points="241.1,41.5 245.8,41.5 245.8,12 241.1,12 241.1,9.1 266.1,9.1 266.1,16.4 262.9,16.4 262.9,12.1 249.3,12.1 
			249.3,25.1 262.6,25.1 262.6,28.1 249.3,28.1 249.3,41.4 263.8,41.4 263.8,36.8 267,36.8 267,44.4 241.1,44.4 		"/>
	</g>
	<g>
		<path d="M293,8.5c10,0,18,7.8,18,18c0,10.3-8,18.5-18,18.5c-10,0-18-8.1-18-18.5C275,16.3,283,8.5,293,8.5 M293,41.8
			c7.9,0,14.4-6.6,14.4-15.3c0-8.4-6.5-14.8-14.4-14.8s-14.3,6.4-14.3,14.8C278.7,35.2,285.1,41.8,293,41.8"/>
	</g>
	<g>
		<path d="M318.9,41.5h4.6V12h-4.6V9.1h16.1c2.2,0,4.4,0.2,6,1c3.5,1.6,5.7,5,5.7,9.6c0,4.9-2.5,8.6-6.4,10
			c-1.7,0.6-3.3,0.7-5.2,0.7h-8v11h4.6v2.9h-12.7L318.9,41.5L318.9,41.5z M334.6,27.4c1.7,0,3.1-0.3,4.3-0.7c2.6-1.1,4.2-3.6,4.2-7
			c0-3.2-1.3-5.5-3.7-6.7c-1.3-0.6-2.9-0.9-4.8-0.9H327v15.3C327,27.4,334.6,27.4,334.6,27.4z"/>
	</g>
	<g>
		<polygon points="353.6,41.5 358.2,41.5 358.2,12.1 353.6,12.1 353.6,9.1 366.3,9.1 366.3,12.1 361.7,12.1 361.7,41.4 375.8,41.4 
			375.8,35.5 379,35.5 379,44.4 353.6,44.4 		"/>
	</g>
	<g>
		<polygon points="385.7,41.5 390.4,41.5 390.4,12 385.7,12 385.7,9.1 410.7,9.1 410.7,16.4 407.5,16.4 407.5,12.1 393.9,12.1 
			393.9,25.1 407.2,25.1 407.2,28.1 393.9,28.1 393.9,41.4 408.4,41.4 408.4,36.8 411.6,36.8 411.6,44.4 385.7,44.4 		"/>
	</g>
	<g>
		<path d="M419.6,9.4c2.3,0,4.1,1.8,4.1,4.1c0,2.3-1.8,4.1-4.1,4.1c-2.2,0-4-1.8-4-4.1C415.6,11.2,417.4,9.4,419.6,9.4 M419.6,17.2
			c2,0,3.6-1.6,3.6-3.7c0-2.1-1.5-3.7-3.6-3.7c-2,0-3.5,1.6-3.5,3.7C416.1,15.6,417.6,17.2,419.6,17.2 M418.3,11.3h1.5
			c0.8,0,1.3,0.5,1.3,1.3c0,0.7-0.4,1.1-0.9,1.2v0c0,0,0,0.1,0.1,0.3l0.9,1.8h-0.6l-1-1.9h-1v1.9h-0.5L418.3,11.3L418.3,11.3z
			 M419.7,13.5c0.5,0,0.9-0.3,0.9-0.9c0-0.5-0.3-0.9-0.9-0.9h-1v1.8C418.8,13.5,419.7,13.5,419.7,13.5z"/>
	</g>
</g>
</svg>
