<?xml version="1.0" encoding="utf-8"?>
<!-- Generator: Adobe Illustrator 23.1.1, SVG Export Plug-In . SVG Version: 6.00 Build 0)  -->
<svg version="1.1" id="Layer_1" xmlns="http://www.w3.org/2000/svg" xmlns:xlink="http://www.w3.org/1999/xlink" x="0px" y="0px"
	 viewBox="0 0 2500 703.6" style="enable-background:new 0 0 2500 703.6;" xml:space="preserve">
<style type="text/css">
	.st0{fill-rule:evenodd;clip-rule:evenodd;fill:#FFFFFF;fill-opacity:0;}
	.st1{fill-rule:evenodd;clip-rule:evenodd;fill:#325E9E;}
	.st2{fill-rule:evenodd;clip-rule:evenodd;fill:#C64A4C;}
</style>
<g>
	<path class="st0" d="M0-935h2500v2500H0V-935z"/>
	<path class="st1" d="M1438,319.1H1428c-2.5-46.2-36.9-86.5-77.2-86.5c-66.3,0-73.9,74.7-73.9,126.8c0,47,3.3,126.8,72.2,126.8
		c40.3,0,76.4-40.3,80.6-85.6h10.1v75.6c-25.2,11.8-62.1,21.8-92.4,21.8c-78.1,0-128.5-57.9-128.5-138.5
		c0-80.6,50.4-137.7,128.5-137.7c30.2,0,58.8,7.6,90.7,21V319.1L1438,319.1z M1510.2,392.1v16c0,33.6,5,73.9,44.5,73.9
		c28.5,0,47-17.6,57.9-45.3l9.2,5c-13.4,36.9-41.1,56.2-76.4,56.2c-52.9,0-89-37.8-89-96.5c0-55.4,36.9-95.7,89-95.7
		c44.5,0,79.8,31.1,79.8,86.5H1510.2z M1571.5,381.2v-17.6c0-21-4.2-47-27.7-47c-31.9,0-32.7,40.3-33.6,64.6H1571.5z"/>
	<path class="st1" d="M1795.7,482V225h-73.9v11.8h25.2V482h-47.8V225h-74.7v11.8h25.2V482h-25.2v10.9h196.5V482H1795.7z
		 M2129.1,492.9V482h-25.2V225H2030v11.8h25.2V482h-47.8V309h-73.9v11.8h24.3v99.1c0,40.3-16,59.6-37.8,59.6
		c-14.3,0-26.8-3.3-26.8-31.9V309h-73.9v11.8h24.3v115c0,48.7,24.3,62.1,59.6,62.1c21,0,42.8-10.1,53.7-31.1h0.8v26L2129.1,492.9
		L2129.1,492.9L2129.1,492.9z M2411.2,492.9V482h-24.4V403c0-29.4,7.6-79.8,27.7-79.8c4.2,0,5.9,3.4,5.9,7.5v17.6
		c0,12.6,7.6,20.2,21,20.2c15.1,0,21.8-10.1,21.8-25.2c0-21.8-10.9-37.8-32.7-37.8c-19.3,0-36.1,13.4-42.8,32.7h-0.9V309H2313v11.8
		h24.3V482h-23.5c-21,0-24.3-7.6-24.3-31.1v-89c0-51.2-34.4-56.3-79.8-56.3c-24.4,0-65.5,8.4-65.5,40.3c0,16,8.4,20.2,19.3,20.2
		c37.8,0,0-49.5,46.2-49.5c25.2,0,30.2,12.6,30.2,29.4v23.5c-8.4,4.2-26,9.2-34.4,10.9c-41.1,9.2-73.1,12.6-73.1,57.9
		c0,36.1,17.6,59.6,52.9,59.6c21.8,0,47.9-5.9,55.4-29.4c4.2,21.8,14.3,24.3,34.4,24.3L2411.2,492.9L2411.2,492.9z M2239.9,413.1
		c0,21,0,66.3-32.7,66.3c-19.3,0-25.2-16.8-25.2-36.1c0-33.6,10.1-43.7,28.5-51.2l29.4-11.8L2239.9,413.1L2239.9,413.1L2239.9,413.1
		z M524.5,202.4c-60.5-12.6-142.7-20.2-211.6-18.5c27.7-52.1,63.8-102.4,99.1-133.5l-9.2-6.7c0,0-89,53.7-152.8,197.3l29.4,9.2
		c6.7-15.1,15.1-31.1,22.7-46.2c62.1-0.8,150.3,5.9,226.7,21c-83.1,14.3-235.9,52.9-324.9,246.9c0,0,16-95.7,58.8-180.5
		c9.2,3.4,28.5,11.8,28.5,11.8l22.7-19.3c-59.6-28.5-127.6-46.2-200.7-56.3c0,0,48.7-15.1,134.3-21l12.6-21
		c-136,5.9-241,44.5-220.8,50.4c23.5,5.9,91.5,9.2,188.1,42.8c-59.6,131-70.5,283.8-47.9,296.4c21.8,11.8,72.2-160.4,173-241
		c0,0,89,44.5,162.1,116.7c2.5-3.3,5.9-5.9,10.1-7.5c-40.3-52.1-95.7-100.8-146.9-126.8c37.8-26,108.3-52.9,176.3-68
		C580.8,242.7,639.6,225,524.5,202.4L524.5,202.4z M2436.4,478.6c0-3.4-3.4-4.2-5-4.2c-1.7,0-5,0-5,3.4c0,1.7,1.7,2.5,2.5,2.5
		l5.9,1.7c2.5,0.8,5,2.5,5,5c0,5-5,6.7-8.4,6.7c-4.2,0-5-1.7-5.9-2.5c-1.7-0.8-2.5-2.5-2.5-5h2.5c0,4.2,3.4,5,5.9,5
		c1.7,0,5-0.8,5-3.3c0-2.5-0.8-3.4-4.2-3.4l-4.2-1.7c-0.8,0-4.2-0.8-4.2-4.2s1.7-6.7,6.7-6.7c7.5,0,8.4,4.2,8.4,6.7L2436.4,478.6
		L2436.4,478.6z M2459.9,492.9v-11.8v-5l-5.9,16.8h-2.5l-5.9-16.8v16.8h-2.5v-20.1h3.4l5.9,16.8l5.9-16.8h4.2v20.1H2459.9z"/>
	<path class="st2" d="M658,225.9h123.4v10.9h-37v189.8c0,42.8,34.4,52.9,61.3,51.2c21-1.7,60.5-8.4,60.5-58.8V236.8h-36.1v-10.9H920
		v10.9h-33.6v179.7c0,63.8-42,80.6-93.2,81.4c-64.6,0.9-102.4-12.6-102.4-73.9V236.8H658L658,225.9L658,225.9L658,225.9z M951.9,403
		h11.8c1.7,37.8,29.4,81.4,73.9,81.4c26.9,0,52.9-12.6,52.9-44.5c0-66.3-135.2-44.5-135.2-138.5c0-56.2,42.8-79.8,79.8-79.8
		c20.2,0,39.5,3.4,70.5,16v63.8h-10.1c-6.7-36.1-31.1-66.3-66.3-66.3c-21.8,0-38.6,16-38.6,40.3c0,58.8,132.7,36.9,132.7,141
		c0,47.9-39.5,81.4-89,81.4c-26.9,0-56.2-5.9-82.3-17.6L951.9,403L951.9,403z M1145,497.9c11.8,0,21-9.2,21-20.1
		c0-11.8-9.2-20.2-21-20.2c-10.9,0-20.2,8.4-20.2,20.2C1124.9,488.7,1134.1,497.9,1145,497.9L1145,497.9z M912.4,497.9
		c10.9,0,20.2-9.2,20.2-20.1c0-11.8-9.2-20.2-20.2-20.2c-10.9,0-20.2,8.4-20.2,20.2C892.3,488.7,901.5,497.9,912.4,497.9z
		 M541.3,497.9c11.8,0,20.1-9.2,20.1-20.1c0-11.8-8.4-20.2-20.1-20.2c-10.9,0-20.2,8.4-20.2,20.2
		C521.2,488.7,530.4,497.9,541.3,497.9z M434.7,40.3c10.9,0,20.2-8.4,20.2-20.2c0-10.9-9.2-20.1-20.2-20.1
		c-10.9,0-20.2,9.2-20.2,20.1C414.5,31.1,423.8,40.3,434.7,40.3z M697.5,593.6h72.2l-5.9,26h-3.4c0.8-2.5,0.8-5.9,0.8-7.6
		c0-15.1-9.2-15.1-21.8-15.1l-22.7,78.1h13.4l-0.8,2.5h-37.8l0.8-2.5h10.9L726,597h-6.7c-17.6,0-23.5,12.6-26,21h-3.4L697.5,593.6
		L697.5,593.6z M783.1,597h-9.2l0.8-3.4h7.5c4.2,0,9.2,0,13.4-0.8l-12.6,41.1h0.8c4.2-6.7,13.4-15.1,22.7-15.1
		c6.7,0,12.6,3.4,12.6,10.1c0,0.8-0.8,2.5-0.8,5l-8.4,27.7c-1.7,5-2.5,7.5-2.5,9.2c0,1.7,0.8,2.5,2.5,2.5c5.9,0,11.8-12.6,13.4-16.8
		h2.5c-3.4,10.1-9.2,22.7-21.8,22.7c-4.2,0-7.5-3.3-7.6-7.5c0,0,0,0,0-0.1c0-1.7,0-4.2,1.7-8.4l9.2-29.4c0-2.5,0.8-5,0.8-6.7
		c0-2.5-1.7-4.2-5-4.2c-9.2,0-21,14.3-24.4,26.9l-7.6,27.7h-10.9L783.1,597L783.1,597z M877.2,658.3c-5,10.1-14.3,21-27.7,21
		c-11.8,0-16.8-7.5-16.8-18.5c0-21,16.8-42,34.4-42c5.9,0,12.6,2.5,12.6,10.1c0,11.8-25.2,20.2-34.4,22.7c-0.8,4.2-1.7,8.4-1.7,12.6
		c0,6.7,3.4,10.9,9.2,10.9c9.2,0,16.8-9.2,21.8-17.6L877.2,658.3L877.2,658.3z M864.6,622.2c-7.6,0-12.6,10.1-17.6,26
		c7.6-2.5,23.5-8.4,23.5-20.2C870.5,624.7,868.8,622.2,864.6,622.2L864.6,622.2z M978.8,620.5L967,659.1c-0.8,2.5-1.7,6.7-1.7,8.4
		c0,4.2,3.4,7.5,6.7,7.5c12.6,0,30.2-21,30.2-35.3c0-10.1-9.2-5.9-9.2-14.3c0-4.2,2.5-6.7,6.7-6.7c3.4,0,7.6,4.2,7.6,11.8
		c0,21.8-16.8,48.7-39.5,48.7c-8.4,0-12.6-5-12.6-11.8c0-2.5,0-5.9,0.8-7.6c-4.2,7.6-16,19.3-26,19.3c-6.7,0-10.1-4.2-10.1-10.1
		c0-2.5,0.8-6.7,2.5-11.8l10.1-34.4h-10.9l0.8-2.5h9.2c4.2,0,8.4-0.8,12.6-0.8l-11.8,41.1c-1.7,4.2-2.5,6.7-2.5,8.4s1.7,4.2,5,4.2
		c10.1,0,21.8-16.8,26-31.9l6.7-21H978.8z M1073.6,620.5l-10.1,35.3c-3.4,10.1-3.4,11.8-3.4,13.4c0,0.8,0.8,2.5,2.5,2.5
		c2.5,0,9.2-8.4,11.8-13.4l2.5,1.7c-4.2,7.6-12.6,19.3-21.8,19.3c-5,0-6.7-3.4-6.7-7.5c0-1.7,0.8-5,1.7-7.6h-0.8
		c-4.2,7.6-11.8,15.1-21.8,15.1c-7.6,0-15.1-4.2-15.1-17.6c0-19.3,20.2-42.8,37-42.8c7.6,0,10.9,5,10.9,11.8l3.4-10.1L1073.6,620.5
		L1073.6,620.5z M1030.8,675.1c15.9,0,26.9-31.1,26.9-42c0-5.9-1.7-10.9-7.6-10.9c-15.1,0-26.9,32.7-26.9,44.5
		C1023.3,670.8,1025.8,675.1,1030.8,675.1z"/>
	<path class="st2" d="M1079.5,644c1.7-9.2,7.6-25.2,17.6-25.2c10.1,0,10.9,12.6,11.8,20.2l1.7,20.1h0.8l10.1-23.5
		c5-9.2,7.6-16.8,15.1-16.8c3.4,0,6.7,2.5,6.7,5.9c0,5-3.4,6.7-7.6,6.7h-4.2c-5,0-6.7,5-8.4,9.2l-17.6,36.1
		c-10.1,21.8-19.3,24.4-26,24.4c-5.4,0.2-9.9-4-10.1-9.3c0-0.3,0-0.5,0-0.8c0-4.2,2.5-7.5,7.6-7.5c2.5,0,4.2,2.5,4.2,5
		c0,2.5-0.8,4.2-0.8,5c0,2.5,1.7,3.4,3.4,3.4c5,0,9.2-5.9,11.8-9.2c4.2-5.9,5.9-9.2,5.9-16.8c0-1.7,0-7.5-0.8-10.9l-3.4-24.3
		c-0.8-6.7-1.7-10.1-5-10.1c-5,0-9.2,14.3-10.9,18.5L1079.5,644L1079.5,644L1079.5,644z M1187,623h-10.1l0.8-2.5h8.4
		c4.2,0,8.4-0.8,12.6-0.8l-3.4,11.8c5.9-5.9,12.6-12.6,21.8-12.6c10.1,0,15.1,9.2,15.1,18.5c0,19.3-16,42-32.7,42
		c-8.4,0-11.8-4.2-14.3-11.8h-0.8l-10.9,36.1h-10.9L1187,623L1187,623z M1213,623.8c-10.9,0-25.2,20.2-25.2,39.5
		c0,5.9,3.4,11.8,10.1,11.8c13.4,0,22.7-28.5,22.7-39.5C1220.6,630.6,1219.7,623.8,1213,623.8z M1283.6,658.3
		c-5,10.1-14.3,21-28.5,21c-10.9,0-16-7.5-16-18.5c0-21,16-42,34.4-42c5.9,0,12.6,2.5,12.6,10.1c0,11.8-25.2,20.2-34.4,22.7
		c-0.8,4.2-1.7,8.4-1.7,12.6c0,6.7,3.4,10.9,9.2,10.9c9.2,0,16.8-9.2,21.8-17.6L1283.6,658.3L1283.6,658.3z M1271,622.2
		c-7.6,0-12.6,10.1-17.6,26c7.6-2.5,23.5-8.4,23.5-20.2C1276.8,624.7,1275.2,622.2,1271,622.2z M1312.1,679.3
		c-14.3,0-21.8-10.9-21.8-24.3c0-18.5,13.4-36.1,32.7-36.1c14.3,0,21.8,10.9,21.8,23.5C1344.8,661.6,1331.4,679.3,1312.1,679.3
		L1312.1,679.3z M1323.8,622.2c-5,0-6.7,0.8-10.1,3.4c-5.9,5-12.6,31.1-12.6,39.4c0,7.6,3.4,10.9,10.9,10.9c4.2,0,6.7-0.8,10.1-3.3
		c5-5,12.6-31.1,12.6-39.5C1334.8,625.5,1331.4,622.2,1323.8,622.2z M1365.8,623h-10.1l0.8-2.5h8.4c4.2,0,8.4-0.8,12.6-0.8
		l-2.5,11.8c5.9-5.9,12.6-12.6,21-12.6c10.9,0,15.1,9.2,15.1,18.5c0,19.3-16,42-32.7,42c-8.4,0-11.8-4.2-14.3-11.8l-10.9,36.1h-10.9
		L1365.8,623z M1391.9,623.8c-10.9,0-24.3,20.2-24.3,39.5c0,5.9,2.5,11.8,9.2,11.8c13.4,0,22.7-28.5,22.7-39.5
		C1399.4,630.6,1398.6,623.8,1391.9,623.8z M1424.6,593.6h8.4c5,0,9.2,0,14.3-0.8l-20.1,73.1c-0.8,2.5-0.8,4.2-0.8,5
		c0,0.9,0.8,1.7,2.5,1.7c4.2,0,10.1-10.9,12.6-15.1l2.5,1.7c-4.2,8.4-11.8,20.2-21,20.2c-5,0-8.4-3.4-8.4-7.5c0-1.7,0.8-4.2,2.5-8.4
		l18.5-66.3h-10.9L1424.6,593.6L1424.6,593.6z M1496,658.3c-5,10.1-14.3,21-28.5,21c-11.8,0-16-7.5-16-18.5c0-21,16-42,34.4-42
		c5.9,0,12.6,2.5,12.6,10.1c0,11.8-25.2,20.2-34.4,22.7c-0.8,4.2-1.7,8.4-1.7,12.6c0,6.7,3.4,10.9,9.2,10.9
		c9.2,0,16.8-9.2,21.8-17.6L1496,658.3L1496,658.3z M1483.4,622.2c-7.6,0-12.6,10.1-18.5,26c7.5-2.5,24.3-8.4,24.3-20.2
		c0.1-3.2-2.4-5.8-5.6-5.9C1483.6,622.2,1483.5,622.2,1483.4,622.2L1483.4,622.2z M1538.8,623l0.8-2.5h10.9l3.4-15.1h11.8l-4.2,15.1
		h11.8l-0.8,2.5h-11.8l-12.6,42.8c0,0.8-0.8,2.5-0.8,3.3c0,1.7,1.7,2.5,3.3,2.5c4.2,0,10.9-8.4,14.3-14.3l2.5,1.7
		c-5,7.6-12.6,20.2-23.5,20.2c-4.2,0-7.5-3.3-7.5-7.5c0,0,0,0,0-0.1c0-2.5,0.8-5.9,3.3-15.1l10.1-33.6L1538.8,623L1538.8,623z
		 M1634.5,620.5l-10.1,35.3c-3.3,10.1-3.3,11.8-3.3,13.4c0,0.8,0.8,2.5,2.5,2.5c2.5,0,9.2-8.4,11.8-13.4l2.5,1.7
		c-4.2,7.6-12.6,19.3-21.8,19.3c-5,0-6.7-3.4-6.7-7.5c0-1.7,0.8-5,1.7-7.6h-0.8c-4.2,7.6-11.8,15.1-22.7,15.1
		c-6.7,0-14.3-4.2-14.3-17.6c0-19.3,20.2-42.8,37-42.8c6.7,0,10.9,5,10.9,11.8l2.5-10.1L1634.5,620.5L1634.5,620.5z M1591.7,675.1
		c15.1,0,26.9-31.1,26.9-42c0-5.9-1.7-10.9-7.5-10.9c-15.1,0-26.9,32.7-26.9,44.5C1584.1,670.8,1586.7,675.1,1591.7,675.1z
		 M1651.3,593.6h8.4c5,0,9.2,0,14.3-0.8l-20.2,73.1c-0.8,2.5-0.8,4.2-0.8,5c0,0.9,0.8,1.7,2.5,1.7c3.3,0,10.1-10.9,12.6-15.1
		l2.5,1.7c-4.2,8.4-11.8,20.2-21.8,20.2c-4.2,0-7.5-3.4-7.5-7.5c0,0,0,0,0,0c0-1.7,0.8-4.2,1.7-8.4l19.3-66.3h-10.9L1651.3,593.6
		L1651.3,593.6L1651.3,593.6z M1687.4,597l0.8-3.4h8.4c5,0,9.2,0,14.3-0.8l-14.3,47h3.3c15.1,0,16-20.1,29.4-20.1
		c3.4,0,7.6,2.5,7.6,6.7c0,3.3-1.7,5.9-5,5.9c-3.4,0-5-1.7-5-4.2c0-0.8,0.8-2.5,0.8-3.4c0-0.8-0.8-0.8-1.7-0.8
		c-5,0-12.6,16-18.5,16.8c7.5,0.8,13.4,5.9,13.4,12.6s-3.4,12.6-3.4,17.6c0,1.7,1.7,3.4,3.4,3.4c6.7,0,11.8-10.9,13.4-16l2.5,0.8
		c-2.5,10.1-10.1,20.2-20.2,20.2c-5.9,0-9.2-3.4-9.2-8.4c0-7.5,3.3-15.9,3.3-21.8c0-6.7-6.7-6.7-10.9-6.7h-4.2l-10.1,35.3H1674
		l24.3-80.6L1687.4,597L1687.4,597z M1834.4,620.5l-10.1,35.3c-3.4,10.1-3.4,11.8-3.4,13.4c0,0.8,0.8,2.5,2.5,2.5
		c2.5,0,9.2-8.4,11.8-13.4l2.5,1.7c-4.2,7.6-12.6,19.3-21.8,19.3c-5,0-6.7-3.4-6.7-7.5c0-1.7,0.8-5,1.7-7.6h-0.8
		c-4.2,7.6-11.8,15.1-21.8,15.1c-7.6,0-15.1-4.2-15.1-17.6c0-19.3,20.1-42.8,36.9-42.8c7.6,0,10.9,5,10.9,11.8l3.4-10.1
		L1834.4,620.5L1834.4,620.5z M1791.5,675.1c16,0,26.9-31.1,26.9-42c0-5.9-1.7-10.9-7.6-10.9c-15.1,0-26.8,32.7-26.8,44.5
		C1784,670.8,1786.5,675.1,1791.5,675.1z M1844.4,623l0.9-2.5h9.2c4.2,0,8.4-0.8,12.6-0.8l-3.3,14.3h0.8c5-6.7,10.9-15.1,21-15.1
		c5.9,0,10.1,3.4,10.1,8.4c0,5.9-3.3,9.2-7.5,9.2c-3.4,0-5.9-1.7-5.9-5c0-2.5,2.5-4.2,2.5-6.7c0-1.7-0.8-2.5-2.5-2.5
		c-6.7,0-21,13.4-27.7,42.8l-3.3,12.6h-10.9l15.1-54.6L1844.4,623L1844.4,623z M1915,679.3c-14.3,0-21.8-10.9-21.8-24.3
		c0-18.5,13.4-36.1,32.7-36.1c14.3,0,21.8,10.9,21.8,23.5C1947.7,661.6,1934.3,679.3,1915,679.3L1915,679.3z M1926.7,622.2
		c-5,0-7.6,0.8-10.9,3.4c-5,5-12.6,31.1-12.6,39.4c0,7.6,3.3,10.9,10.9,10.9c5,0,7.6-0.8,10.1-3.3c5.9-5,12.6-31.1,12.6-39.5
		C1936.8,625.5,1933.4,622.2,1926.7,622.2z M2002.3,663.3c0,1.7-0.8,4.2-0.8,5.9s0.8,2.5,2.5,2.5c4.2,0,11.8-11.8,13.4-14.3l2.5,1.7
		c-4.2,7.6-11.8,20.2-22.7,20.2c-4.2,0-6.7-2.5-6.7-6.7c0-3.4,0-6.7,2.5-12.6l-0.8-0.8c-5.9,10.1-15.1,20.2-26,20.2
		c-5.9,0-10.1-3.4-10.1-10.9c0-1.7,0.8-5.9,1.7-8.4l10.9-36.9h-10.9l0.8-2.5h8.4c4.2,0,8.4-0.8,12.6-0.8l-10.9,40.3
		c-0.8,4.2-0.8,6.7-0.8,8.4c0,4.2,1.7,5,4.2,5c7.6,0,21-15.1,27.7-38.6l4.2-14.3h10.9L2002.3,663.3z M2035.9,623H2025l0.8-2.5h9.2
		c4.2,0,8.4-0.8,12.6-0.8l-4.2,14.3c4.2-6.7,14.3-15.1,23.5-15.1c5.9,0,11.8,3.4,11.8,10.1c0,0.8,0,2.5-0.8,5l-8.4,27.7
		c-1.7,5-1.7,7.5-1.7,9.2c0,1.7,0.8,2.5,2.5,2.5c5.9,0,11.8-12.6,12.6-16.8h3.3c-3.3,10.1-10.1,22.7-21.8,22.7c-5,0-8.4-3.4-8.4-7.5
		c0-1.7,0.8-4.2,1.7-8.4l9.2-29.4c0.8-2.5,1.7-5,1.7-6.7c0-2.5-1.7-4.2-5-4.2c-9.2,0-21.8,14.3-25.2,26.9l-6.7,27.7h-10.9
		L2035.9,623z M2156.8,659.9c-5,8.4-11.8,19.3-21.8,19.3c-5,0-7.6-3.4-7.6-8.4c0-1.7,0-4.2,0.9-6.7c-5,8.4-12.6,15.1-22.7,15.1
		c-8.4,0-15.1-4.2-15.1-16.8c0-19.3,18.5-43.7,35.3-43.7c6.7,0,10.9,4.2,11.8,10.1h0.8l9.2-31.9h-10.9v-3.4h10.1
		c4.2,0,8.4,0,13.4-0.8l-17.6,59.6c-1.7,4.2-4.2,15.1-4.2,17.6c0,0.8,0,2.5,3.4,2.5s10.9-10.9,12.6-13.4L2156.8,659.9L2156.8,659.9z
		 M2109.7,674.2c14.3,0,26-28.5,26-41.1c0-5-3.4-10.9-8.4-10.9c-14.3,0-25.2,31.9-25.2,42.8C2102.2,670,2103.9,674.2,2109.7,674.2z
		 M2215.5,597h-11.8l0.8-3.4h10.1c4.2,0,8.4,0,12.6-0.8l-11.8,41.1c4.2-6.7,14.3-15.1,23.5-15.1c5.9,0,11.8,3.4,11.8,10.1
		c0,0.8,0,2.5-0.8,5l-8.4,27.7c-1.7,5-2.5,7.5-2.5,9.2c0,1.7,0.8,2.5,2.5,2.5c5.9,0,11.8-12.6,13.4-16.8h2.5
		c-3.4,10.1-9.2,22.7-21.8,22.7c-4.2,0-7.5-3.4-7.5-7.5c0,0,0,0,0,0c0-1.7,0-4.2,1.7-8.4l9.2-29.4c0.8-2.5,0.8-5,0.8-6.7
		c0-2.5-1.7-4.2-5-4.2c-8.4,0-21,14.3-24.3,26.9l-7.5,27.7H2192L2215.5,597L2215.5,597z M2308.7,658.3c-4.2,10.1-13.4,21-27.7,21
		c-11.8,0-16.8-7.5-16.8-18.5c0-21,16.8-42,34.4-42c6.7,0,12.6,2.5,12.6,10.1c0,11.8-24.3,20.2-33.6,22.7c-1.7,4.2-1.7,8.4-1.7,12.6
		c0,6.7,2.5,10.9,9.2,10.9c9.2,0,16.8-9.2,21-17.6L2308.7,658.3L2308.7,658.3z M2297,622.2c-8.4,0-13.4,10.1-18.5,26
		c7.5-2.5,23.5-8.4,23.5-20.2C2302,624.7,2300.3,622.2,2297,622.2z M2318.8,623l0.8-2.5h9.2c4.2,0,9.2-0.8,13.4-0.8l-3.4,14.3
		c5-6.7,11.8-15.1,21-15.1c5.9,0,10.1,3.4,10.1,8.4c0,5.9-2.5,9.2-6.7,9.2c-4.2,0-6.7-1.7-6.7-5c0-2.5,3.4-4.2,3.4-6.7
		c0-1.7-1.7-2.5-2.5-2.5c-6.7,0-21,13.4-28.5,42.8l-2.5,12.6h-10.9l14.3-54.6L2318.8,623L2318.8,623L2318.8,623z M2410.4,658.3
		c-5,10.1-14.3,21-28.5,21c-11.8,0-16-7.5-16-18.5c0-21,16-42,34.4-42c5.9,0,12.6,2.5,12.6,10.1c0,11.8-25.2,20.2-34.4,22.7
		c-0.8,4.2-1.7,8.4-1.7,12.6c0,6.7,3.3,10.9,9.2,10.9c9.2,0,16.8-9.2,21.8-17.6L2410.4,658.3L2410.4,658.3z M2397.7,622.2
		c-7.5,0-12.6,10.1-17.6,26c7.6-2.5,23.5-8.4,23.5-20.2c0.1-3.2-2.4-5.8-5.6-5.9C2397.9,622.2,2397.8,622.2,2397.7,622.2z
		 M2419.6,663.3c4.2,0,7.5,3.4,7.5,7.5s-3.4,7.5-7.5,7.5c-4.2,0-7.5-3.4-7.5-7.5C2412,666.7,2415.4,663.3,2419.6,663.3
		C2419.5,663.3,2419.6,663.3,2419.6,663.3z M2436.4,599.5c0-2.5-3.4-4.2-5-4.2c-1.7,0-5,0.8-5,4.2c0,1.7,1.7,1.7,2.5,2.5l5.9,0.9
		c2.5,0.8,5,2.5,5,5.9c0,5-5,5.9-8.4,5.9c-4.2,0-5-0.9-5.9-1.7c-1.7-1.7-2.5-3.3-2.5-5h2.5c0,3.3,3.4,4.2,5.9,4.2c1.7,0,5,0,5-3.3
		c0-1.7-0.8-2.5-4.2-3.4l-4.2-0.8c-0.8,0-4.2-1.7-4.2-5c0-3.4,1.7-5.9,6.7-5.9c7.5,0,8.4,4.2,8.4,5.9L2436.4,599.5L2436.4,599.5z
		 M2459.9,614.6V602v-5l-5.9,17.6h-2.5l-5.9-17.6v17.6h-2.5v-21h3.4l5.9,17.6l5.9-17.6h4.2v21H2459.9z"/>
</g>
</svg>
